<svg width="20" height="20" viewBox="0 0 20 20" fill="none" xmlns="http://www.w3.org/2000/svg">
<path fill-rule="evenodd" clip-rule="evenodd" d="M3.63243 0.571289H16.9428C18.4633 0.571289 19.7005 1.81057 19.7005 3.33357V16.6662C19.7005 18.1892 18.4633 19.4284 16.9428 19.4284H3.63243C2.11198 19.4284 0.874756 18.1892 0.874756 16.6662V3.33357C0.874756 1.81057 2.11198 0.571289 3.63243 0.571289ZM5.32385 15.5244H7.53V7.79005H5.32385V15.5244ZM7.53 6.68515H5.32385V4.47533H7.53V6.68515ZM13.0453 15.5244H15.2515V10.725C15.2515 9.13609 13.99 7.79164 12.4938 7.79005C11.9816 7.79005 11.6432 7.91627 11.2727 8.05446C11.136 8.10544 10.995 8.15805 10.8392 8.20655V7.79005H8.63306V15.5244H10.8392V11.1048C10.8392 10.4956 11.3341 9.99988 11.9423 9.99988C12.5504 9.99988 13.0453 10.4956 13.0453 11.1048V15.5244Z" fill="white"/>
</svg>
