<svg width="23" height="16" viewBox="0 0 23 16" fill="none" xmlns="http://www.w3.org/2000/svg">
<path fill-rule="evenodd" clip-rule="evenodd" d="M5.34658 0.285645H18.3537C20.9057 0.285645 22.9745 2.31301 22.9745 4.81391V11.1859C22.9745 13.6868 20.9057 15.7142 18.3537 15.7142H5.34658C2.79461 15.7142 0.72583 13.6868 0.72583 11.1859V4.81391C0.72583 2.31301 2.79461 0.285645 5.34658 0.285645ZM9.14482 11.1534L15.2287 8.30987C15.4117 8.22436 15.4148 7.97015 15.2339 7.88034L9.15008 4.85905C8.98763 4.77836 8.79546 4.89405 8.79546 5.07254V10.9374C8.79546 11.1134 8.98271 11.2292 9.14482 11.1534Z" fill="white"/>
</svg>
