<?xml version="1.0" encoding="utf-8"?>
<!-- Generator: Adobe Illustrator 25.0.1, SVG Export Plug-In . SVG Version: 6.00 Build 0)  -->
<svg version="1.1" id="Layer_1" xmlns="http://www.w3.org/2000/svg" xmlns:xlink="http://www.w3.org/1999/xlink" x="0px" y="0px"
	 viewBox="0 0 573 388.7" style="enable-background:new 0 0 573 388.7;" xml:space="preserve">
<style type="text/css">
	.st0{fill:#D7E6ED;}
	.st1{fill:#D7E7EE;}
	.st2{fill:#A2C1C9;}
	.st3{fill:#EE9621;}
	.st4{fill:#FCB017;}
	.st5{fill:#FEC044;}
	.st6{fill:#D47528;}
	.st7{fill:#481F52;}
	.st8{fill:#56305F;}
	.st9{fill:#683C72;}
	.st10{fill:#371443;}
	.st11{opacity:0.6;}
	.st12{opacity:0.6;fill:#D7E7EE;}
	.st13{opacity:0.7;}
	.st14{fill:#CD2477;}
	.st15{fill:#4C9AD4;}
	.st16{fill:#1779A9;}
	.st17{fill:#E55958;}
	.st18{fill:#E9AD69;}
	.st19{fill:#EFBD78;}
	.st20{fill:#F0EFEF;}
	.st21{fill:#BBBBBB;}
	.st22{fill:#F37562;}
	.st23{fill:#D7D6D6;}
	.st24{fill:#CF873E;}
	.st25{fill:#FFFFFF;}
	.st26{fill:#F2F2F2;}
	.st27{fill:#B51F6D;}
	.st28{fill:#4A1C53;}
	.st29{fill:#F3735E;}
	.st30{fill:#D8D9D8;}
	.st31{fill:#BCBCBB;}
	.st32{fill:#228642;}
	.st33{fill:#256A35;}
	.st34{fill:#F37259;}
	.st35{fill:#EA5650;}
	.st36{fill:#1E4923;}
	.st37{fill:#E85754;}
	.st38{fill:#4894D0;}
	.st39{fill:#E55653;}
	.st40{fill:#2185C3;}
	.st41{fill:#811951;}
	.st42{fill:#975A25;}
	.st43{fill:#AB3C30;}
	.st44{fill:#8A1C1B;}
	.st45{fill:#EF7461;}
	.st46{fill:#1A1A1A;}
	.st47{fill:#BDCCD4;}
	.st48{fill:#8BA4AD;}
	.st49{fill:#A4B8C1;}
	.st50{fill:#010101;}
	.st51{fill:#333333;}
	.st52{fill:#8D1734;}
	.st53{fill:#B4B4B4;}
	.st54{fill:#2B2C2B;}
	.st55{fill:#2F8AC3;}
	.st56{fill:#F09621;}
	.st57{fill:#0F5E78;}
	.st58{fill:#EDD2B3;}
	.st59{fill:#DBBFA1;}
</style>
<g>
	<g>
		<g>
			<path class="st0" d="M434.8,30.3c0,0-52.6,2-54.8-0.5c-2.3-2.4-2.9-9.1,9.8-8c0,0-11.6-15,6.2-17.7c17.7-2.8,15.6,11.2,15.6,11.2
				s17.6-9.9,12.9,6.2c0,0,4.4-3.3,5.7,2.4C430.1,24,457.4,29.2,434.8,30.3z"/>
		</g>
		<ellipse class="st1" cx="286.9" cy="358.5" rx="273.1" ry="27"/>
		<g>
			<path class="st2" d="M430.9,368.8c0,0-5.4,0-5.4,1.8c0,1.8,43.3,14.4,50.6,12.6c7.2-1.8,45.1-18.1,45.1-21.7
				c0-3.6-28.9-3.6-28.9-3.6L430.9,368.8z"/>
			<path class="st3" d="M516.5,360.1c0,0-3.7,2.5-5.2,3.2c-2.2,1.1-4.4,2.2-6.7,3.2c-6.1,2.9-12.1,5.9-18.3,8.7
				c-3.6,1.6-7.5,4-11.8,4.3c-4.2,0.3-8.1-0.9-12.1-1.8c-7-1.5-13.9-3-20.8-4.8c-2.4-0.6-4.8-1.2-7.2-1.9c-1.6-0.4-5.4-1.1-5.4-2.6
				c0-1-0.8-4.7,0.3-5.3c1.2-0.6,5.1-0.2,6.3-0.8c3-1.4,6-2.7,9-4c6.1-2.6,12.3-5.2,18.6-7.7c2.3-0.9,4.3-1.7,6.9-1.9
				c2.8-0.2,5.5,0.3,8.2,0.7c2.8,0.5,5.6,1,8.4,1.5c7.1,1.3,14.1,2.6,21,4.2c1.4,0.3,6.4-0.4,7.9-0.5
				C516.5,354.7,516.7,359,516.5,360.1z"/>
			<path class="st4" d="M516.3,355.5C516.3,355.5,516.3,355.5,516.3,355.5c-0.5,1.4-3.7,2.5-5.2,3.2c-2.2,1.1-4.4,2.2-6.7,3.2
				c-6.1,2.9-12.1,5.9-18.3,8.7c-3.6,1.6-7.5,4-11.8,4.3c-4.2,0.3-8.1-0.9-12.1-1.8c-7-1.5-13.9-3-20.8-4.8
				c-2.4-0.6-4.8-1.2-7.2-1.9c-1.6-0.4-5.4-1.1-5.4-2.6c0-1.2,1.9-1.9,3.1-2.5c1.2-0.6,2.4-1.2,3.6-1.7c3-1.4,6-2.7,9-4
				c6.1-2.6,12.3-5.2,18.6-7.7c2.3-0.9,4.3-1.7,6.9-1.9c2.8-0.2,5.5,0.3,8.2,0.7c2.8,0.5,5.6,1,8.4,1.5c7.1,1.3,14.1,2.6,21,4.2
				c1.4,0.3,2.8,0.6,4.1,1C513.1,353.8,516.6,354.3,516.3,355.5z"/>
			<path class="st5" d="M494.3,366c0,0-16.3,8.2-20.6,8.4c-4.3,0.2-37.9-8-37.9-8s34.7,7.2,38.2,6.8
				C477.6,372.7,494.3,366,494.3,366z"/>
			<path class="st5" d="M469.4,346.5c-2.5,0.3-23,8.9-23,8.9s21-8.3,23.7-8.2c2.7,0,20.2,2.4,20.2,2.4S471.8,346.2,469.4,346.5z"/>
			<g>
				<g>
					<path class="st6" d="M487.4,366.4c4.2-1.9,6.6-4.6,6.5-7.4c-0.1-2.7-2.3-5.1-6-6.8c-7.8-3.4-20.5-2.8-29,1.5
						c-4.7,2.4-7,5.1-6.7,7.8c0.1,0.6,0.3,1.3,0.6,1.9c0.9,1.7,2.9,3.2,5.8,4.5c3.8,1.7,8.9,2.4,14.3,2
						C478,369.6,483.1,368.4,487.4,366.4z M461.7,365.9c-1.8-0.8-3.1-1.9-3.8-3.1c-0.3-0.6-0.5-1.2-0.5-1.9
						c-0.1-2.1,1.7-4.2,4.8-5.5c3.5-1.5,7.5-2.5,11.5-2.8c2.8-0.2,6.8-0.1,10.2,1.4c2.9,1.3,4.5,2.9,4.7,4.6c0.2,2-1.6,4.1-5.2,5.9
						C477,367.9,467.5,368.4,461.7,365.9z"/>
					<path class="st6" d="M475.3,366.2l2.4-0.6l-3-4.3c0.2-0.1,0.4-0.2,0.5-0.2c0.7-0.4,1.1-0.8,1.2-1.2l5.5-1l-1.1-1.5l-5.6,1.2
						c0,0,0,0,0,0c-0.8-0.4-1.8-0.4-2.5-0.3c-1,0.1-1.9,0.3-2.8,0.7c-0.8,0.3-1.2,0.8-1.2,1.3c0,0.2,0,0.3,0.1,0.4
						c0.2,0.3,0.5,0.6,0.9,0.7c0.8,0.3,1.9,0.4,2.9,0.3L475.3,366.2z"/>
				</g>
			</g>
		</g>
		<g>
			<path class="st2" d="M372.7,346.8c0,0,5.4-0.7,5.6,1.1c0.2,1.8-41.3,19.6-48.7,18.6c-7.4-0.9-47-12.5-47.4-16.1
				c-0.4-3.6,28.3-7.1,28.3-7.1L372.7,346.8z"/>
			<path class="st7" d="M286.6,348.5c0,0,3.9,2,5.5,2.6c2.3,0.8,4.7,1.6,7,2.4c6.4,2.2,12.8,4.4,19.2,6.4c3.8,1.2,7.9,3,12.2,2.8
				c4.2-0.2,7.9-1.9,11.8-3.2c6.8-2.3,13.5-4.7,20.1-7.2c2.3-0.9,4.6-1.8,6.9-2.8c1.5-0.6,5.3-1.7,5-3.2c-0.2-1,0.2-4.8-1-5.2
				c-1.2-0.4-5.1,0.4-6.4,0c-3.1-1-6.3-2-9.4-2.9c-6.4-1.9-12.9-3.7-19.4-5.4c-2.4-0.6-4.5-1.2-7.1-1c-2.8,0.2-5.4,1-8,1.7
				c-2.7,0.8-5.4,1.6-8.1,2.5c-6.9,2.1-13.7,4.3-20.4,6.7c-1.3,0.5-6.4,0.4-7.9,0.5C286,343.1,286.4,347.4,286.6,348.5z"/>
			<path class="st8" d="M286.2,343.8C286.2,343.9,286.3,343.9,286.2,343.8c0.7,1.4,3.9,2,5.5,2.6c2.3,0.8,4.7,1.6,7,2.4
				c6.4,2.2,12.8,4.4,19.2,6.4c3.8,1.2,7.9,3,12.2,2.8c4.2-0.2,7.9-1.9,11.8-3.2c6.8-2.3,13.5-4.7,20.1-7.2c2.3-0.9,4.6-1.8,6.9-2.8
				c1.5-0.6,5.2-1.7,5-3.2c-0.2-1.1-2.1-1.7-3.4-2.1c-1.2-0.4-2.5-0.9-3.8-1.3c-3.1-1-6.3-2-9.4-2.9c-6.4-1.9-12.9-3.7-19.4-5.4
				c-2.4-0.6-4.5-1.2-7.1-1c-2.8,0.2-5.4,1-8,1.7c-2.7,0.8-5.4,1.6-8.1,2.5c-6.9,2.1-13.7,4.3-20.4,6.7c-1.3,0.5-2.7,1-4,1.5
				C289.3,341.8,285.8,342.7,286.2,343.8z"/>
			<path class="st9" d="M309.4,351.7c0,0,17.2,6.2,21.5,5.9c4.3-0.3,36.7-12.5,36.7-12.5s-33.5,11.4-37.1,11.3
				C326.8,356.3,309.4,351.7,309.4,351.7z"/>
			<path class="st9" d="M331.8,329.3c2.5,0,23.9,6,23.9,6s-21.9-5.7-24.5-5.3c-2.7,0.4-19.8,4.8-19.8,4.8S329.3,329.3,331.8,329.3z"
				/>
			<path class="st10" d="M353.5,340.8c-0.4-0.9-16.4-6.3-18.3-6.5c-1.9-0.2-30.3,9.5-30.5,9.5c-1.6,0.4,18.7,7.5,21.6,7.5
				s24.2-8.8,24.9-9l3.8,3.4C355.1,345.8,353.9,341.7,353.5,340.8z M323,346.5c-2.5,0-4.5-0.7-4.5-1.7c0-0.9,2-1.7,4.5-1.7
				c2.5,0,4.5,0.7,4.5,1.7C327.5,345.8,325.5,346.5,323,346.5z M331.2,343.9c-2.5,0-4.5-0.7-4.5-1.7s2-1.7,4.5-1.7s4.5,0.7,4.5,1.7
				S333.6,343.9,331.2,343.9z M339,341c-2.5,0-4.5-0.7-4.5-1.7c0-0.9,2-1.7,4.5-1.7c2.5,0,4.5,0.7,4.5,1.7
				C343.5,340.3,341.5,341,339,341z"/>
		</g>
		<g>
			<g>
				<g>
					<path class="st0" d="M143.5,114.8c0,0,25.7,0.6,22.2-5.7c-3.5-6.2-28.2-5.1-28.2-5.1s2-9.8-5.7-13.2c-7.7-3.3-15.6-1-15.6-1
						s10-26.6-11.3-28.4c-21.2-1.8-18.6,21.8-18.6,21.8S82.5,72.5,72,79c-10.5,6.5-2.6,19.5-2.6,19.5s-6.1-7.7-14.8-3.1
						c-8.7,4.7-7,12.1-7,12.1s-25.5,2.3-18.1,5.8S143.5,114.8,143.5,114.8z"/>
				</g>
			</g>
		</g>
		<g>
			<g>
				<g class="st11">
					<path class="st1" d="M183.2,222.8l-1.4,19.5l1.2,0.1l1.4-19.6C184,222.8,183.6,222.8,183.2,222.8z"/>
				</g>
				<path class="st12" d="M200.6,156.9c-0.7-0.7-4.9-1.1-6.6-1.2l-0.1,1.2c1.4,0.1,5.3,0.4,5.8,0.8c0.9,3.1-3.8,52.5-7.1,85.1
					l1.2,0.1c0-0.2,2.2-21.2,4.1-42.1C201.8,158.1,201,157.3,200.6,156.9z"/>
				<g class="st11">
					<path class="st1" d="M197.5,242.8l-1.2-0.1c0-0.4,2.7-36.1,5.5-71.8c5.8-72.3,6.7-73.7,7-74.2c0.4-0.6,1.3-2,13-1.6
						c5.4,0.2,10.7,0.7,11.2,0.8c1.6,0,57.1,0,111.8,0.2c32.5,0.1,58.4,0.4,76.9,0.6c11,0.2,19.6,0.4,25.4,0.6
						c3.1,0.1,5.5,0.2,7.1,0.4c2.5,0.2,3.1,0.3,3.1,1c0,1.2-1,31.5-2.2,60.8c-0.7,17.1-1.2,30.8-1.7,40.9
						c-0.9,18.8-1.2,19.1-1.5,19.4c-0.3,0.2-0.6,0.5-23.6,0.1c-12.8-0.2-30.6-0.6-50.1-1.1c-35.5-0.9-73.6-2.1-76.1-2.5
						c-0.8-0.1-1.4-1.1-1.7-5.3c-0.2-2.8-0.3-6.8-0.2-12.1c0.1-8.7,0.6-20.9,1.6-36.1c1.6-25.8,3.7-51.9,3.7-52.2l1.2,0.1
						c0,0.3-2.1,25.6-3.7,51c-0.9,14.9-1.4,27-1.6,35.8c-0.3,14.8,0.6,17.1,1,17.5c2.7,0.4,35.3,1.4,74.9,2.4
						c41.3,1.1,70.5,1.5,73.8,1.2c0.3-1.8,1.1-12.6,3-60.3c1.1-28,2-55.7,2.1-59.4c-2.6-0.5-21.7-1.4-113.3-1.8
						C288.2,97,233.6,97.1,233,97.1l-0.1,0c-0.1,0-5.5-0.6-11.1-0.7c-10.1-0.4-11.7,0.7-12,1.1C208.4,100.9,200.4,203.5,197.5,242.8
						z"/>
				</g>
				<g>
					<g class="st11">
						<path class="st1" d="M192.6,186.2c0,0-2.2,36.1-3.7,36.8c-1.4,0.6-33.7-1.2-34.7-1.8c-1-0.6,0.8-34.8,2.2-35.3
							C157.7,185.5,192.1,184.8,192.6,186.2z"/>
					</g>
					<g class="st11">
						<path class="st2" d="M187.2,222.3c1.4-0.8,3.5-36.5,3.5-36.5l0,0c1.1,0.1,1.8,0.3,1.9,0.5c0,0-2.2,36.1-3.7,36.8
							c-1.4,0.6-33.7-1.2-34.7-1.8c-0.1,0-0.1-0.3-0.2-0.6C160.8,221.1,186,223,187.2,222.3z"/>
					</g>
					<g>
						<path class="st4" d="M156.8,199.2c0.1-0.1,1.6-0.2,2.7-0.3c0.1,0,20.4,0.7,21.1,1.5c0.7,0.8,1.7,14.8,2.9,14
							c0,0,1.6-14.8,0.6-14.9c-8.3-1.4-20.9-1.3-24.1-1.4c0.2-2.2,0.7-4.3,1-4.4c1-0.5,8-0.8,8,0.2c0.1,0.9-0.3,3.4,0.1,3.3
							c0.4,0,15.8,0.6,16.2,1.8c0.3,1.2-0.3,16.4-1.7,16.3c0,0-23.6-0.2-23.9-1.8C159.6,213.6,156.1,199.9,156.8,199.2z"/>
					</g>
				</g>
				<g>
					<g class="st13">
						<path class="st1" d="M194.6,136.4c0,0-1.1,36.2-2.6,36.9c-1.4,0.7-33.7-0.2-34.8-0.8c-1-0.5-0.2-34.8,1.1-35.3
							C159.7,136.7,194.1,134.9,194.6,136.4z"/>
					</g>
					<g>
						<path class="st8" d="M161.6,161.5c0.7,1.3,6.3,7.9,6.3,7.9L165,162c0,0,20.9,1.8,21.7-0.4c0.8-2.1,2.3-16.6,0.7-16.6
							c0,0-24.3-1.4-25.3,0.7C161.1,147.8,160.6,159.8,161.6,161.5z M178.8,152.1c0.6-1.7,2.2-2.6,3.7-2.1c1.5,0.5,2.2,2.2,1.6,3.9
							c-0.6,1.7-2.2,2.6-3.7,2.1C178.9,155.6,178.2,153.8,178.8,152.1z M171.5,152.3c0.6-1.7,2.2-2.6,3.7-2.1
							c1.5,0.5,2.2,2.2,1.6,3.9c-0.6,1.7-2.2,2.6-3.7,2.1C171.7,155.7,171,153.9,171.5,152.3z M164.2,152.3c0.6-1.7,2.2-2.6,3.7-2.1
							c1.5,0.5,2.2,2.2,1.6,3.9c-0.6,1.7-2.2,2.6-3.7,2.1C164.4,155.7,163.6,154,164.2,152.3z"/>
					</g>
					<g class="st13">
						<path class="st2" d="M190.3,172.6c1.4-0.9,2.4-36.6,2.4-36.6l0,0c1.1,0.1,1.8,0.2,1.9,0.4c0,0-1.1,36.2-2.6,36.9
							c-1.4,0.7-33.7-0.2-34.8-0.8c-0.1,0-0.1-0.3-0.2-0.6C163.8,172.2,189.1,173.3,190.3,172.6z"/>
					</g>
				</g>
				<g>
					<g>
						<g class="st11">
							<path class="st1" d="M147.2,155.8c0,0-1,36.2-2.4,36.9c-1.4,0.7-33.7-0.1-34.8-0.6c-1-0.5-0.3-34.8,1-35.3
								C112.3,156.2,146.7,154.4,147.2,155.8z"/>
						</g>
						<g class="st11">
							<path class="st2" d="M143,192c1.4-0.9,2.3-36.6,2.3-36.6l0,0c1.1,0.1,1.8,0.2,1.9,0.4c0,0-1,36.2-2.4,36.9
								c-1.4,0.7-33.7-0.1-34.8-0.6c-0.1,0-0.1-0.3-0.2-0.6C116.5,191.7,141.8,192.8,143,192z"/>
						</g>
					</g>
					<path class="st14" d="M140.8,166c-0.6-1-26.3-0.1-26.3-0.1s10.3,9.1,12.8,9.6c2,0.4,11.6-8.6,11.6-8.6s0.9-0.7,1.1,0.6
						c0,0.3-3.7,3.8-7.1,6.4c1.5,1.9,6,8.6,6,8.6l-6.8-8c-2,1.5-3.8,2.6-4.6,2.5c-0.8-0.1-2.8-1.3-4.9-2.9l-8.2,8.6
						c0,0,5.6-7.4,7.5-9.1c-3.7-2.7-7.6-6.3-7.6-6.3s-1.4,14.6-0.7,15.8c0.8,1.1,25.3,0.8,26.2,0.4
						C140.8,183.1,141.4,166.9,140.8,166z"/>
				</g>
				<g class="st11">
					<path class="st1" d="M190.1,242.4l-1.2-0.1c2.5-23.6,6-59.4,5.3-62.3c-0.7-0.3-4.7-1-24.8-1.6c-11.6-0.3-23.1-0.4-23.2-0.4
						l0-1.2c0.1,0,11.8,0.1,23.6,0.4c24,0.7,24.9,1.5,25.3,1.9c0.4,0.4,1.1,1.1-1.9,32.4C191.8,226.9,190.1,242.3,190.1,242.4z
						 M194.3,180C194.3,180,194.3,180,194.3,180L194.3,180z M194.2,179.9L194.2,179.9L194.2,179.9z"/>
				</g>
			</g>
			<g>
				<path class="st15" d="M374.3,171.7l5-121.6c-72.8,0.1-143.8,1.5-144.7,3.6c0,0-4.7,57.4-8.5,115.9L374.3,171.7z"/>
				<path class="st0" d="M238.5,61.3c0,0-8.3,103.7-7.2,104.5c1.1,0.7,138.1,3.6,139.3,2.2c1.3-1.4,6-108.3,4-108.8
					C372.6,58.6,238.7,59.9,238.5,61.3z"/>
				<path class="st16" d="M243.4,57.6c-0.5,1.1-1.7,1.6-2.7,1.2c-1-0.4-1.4-1.7-1-2.8c0.5-1.1,1.7-1.6,2.7-1.2
					C243.4,55.3,243.9,56.5,243.4,57.6z"/>
				<path class="st16" d="M248.6,57.4c-0.5,1.1-1.7,1.6-2.7,1.2c-1-0.4-1.4-1.7-1-2.8c0.5-1.1,1.7-1.6,2.7-1.2
					C248.7,55.1,249.1,56.3,248.6,57.4z"/>
				<path class="st16" d="M253.7,57.2c-0.5,1.1-1.7,1.6-2.7,1.2s-1.4-1.7-1-2.8c0.5-1.1,1.7-1.6,2.7-1.2
					C253.7,54.9,254.2,56.1,253.7,57.2z"/>
			</g>
			<g>
				<path class="st15" d="M390,171.6l158.7,2.3c2.7-58,4.1-115,1-118.7c-3.2-3.8-79.6-5.3-154.7-5.3L390,171.6z"/>
				<path class="st0" d="M398.6,59.9c0,0-6.7,107.5-5.2,108.3c1.4,0.7,151.6,3.4,152.2,2.2s4-104.1,1.8-105.7
					C545.2,63,458.8,60.6,398.6,59.9z"/>
				<path class="st16" d="M405.6,55.7c-0.5,1.1-1.8,1.6-2.7,1.1c-1-0.5-1.4-1.8-0.8-2.8c0.5-1.1,1.8-1.6,2.7-1.1
					C405.8,53.3,406.1,54.6,405.6,55.7z"/>
				<g>
					<g>
						<g>
							<path class="st17" d="M401.7,98.9c0,0-1.2-8.5-3-8.4c-1.7,0.1-0.3,4.1-1.4,3.8c-1.2-0.3-4.3-7.4-6.4-6.9
								c-1.8,0.4,3.3,6.7,2.8,6.8c-0.5,0.1-6.2-3.9-7.2-3.5c-1.1,0.5,0.4,2.5,4.5,4.5c0,0,1.7,0.9,1.5,1.1c-0.3,0.2-6.4-1.8-6.6-0.9
								c-0.2,0.9,1.3,1.5,6.1,3c0,0,0.9,0.2,0.4,0.3c-0.5,0.1-6-0.5-4.7,1.1s13.1,2.7,13.1,2.7L401.7,98.9z"/>
						</g>
					</g>
					<path class="st18" d="M473.9,84.2c0,0-1.9,0.5-6,2.2c-9.8,4-28,16.4-34.6,18.3c-6.6,1.9-31.5-7.8-31.5-7.8l-2.1,6.4
						c0,0,21.2,21.9,35.1,25.3c13.7,3.3,41.8-2.6,41.8-2.6L473.9,84.2z"/>
					<path class="st19" d="M494,81.4c0,0-8,0.7-17.4,2.2c-3.8,0.6-7.3,2.2-10.3,4.5c-6.9,5.2-4.2,20.8-0.3,42.1
						c0,0,4.4,28.9,7.7,39.9c17.3,0.3,34.3,0.5,47.4,0.6c0.9-6,3.4-22.3,5.9-32.8l5.2,7c3,4.3,4.5,9.5,4.3,14.8
						c-0.1,3.1-0.4,6.9-1.1,11.1c6.2,0,9.9-0.1,10-0.3c0.3-0.7,1.4-31.3,2.1-59.4C538.2,96.1,522,82.8,494,81.4z"/>
					<g>
						<path class="st20" d="M494,81.4c0,0-8,0.7-17.4,2.2c-0.2,0-0.4,0.1-0.6,0.1c-0.8,5,0.3,19.5,7.9,27.5c0,0,18.1-12.6,19.9-28.8
							C500.6,81.9,497.4,81.5,494,81.4z"/>
					</g>
					<g>
						<g>
							<g>
								<path class="st21" d="M481.6,78.7c0,0,7.4-3,15.6-0.7l-1.5,5.9l-14.1,3L481.6,78.7z"/>
							</g>
						</g>
						<g>
							<g>
								<g>
									<path class="st8" d="M474.8,59.7c0,0-7.4,5.6-9.7,1.7c-2.3-3.9,6.5-10.3,6.5-10.3s-8.4,1.2-7.9-3.2
										c0.5-4.4,8.1-8.2,17.9-6.3c0,0-3.7-4.6-1.2-5.6c2.6-0.9,13.7,3.7,16.3,13.7c0,0,0.5-3,1.9-2.8c1.4,0.2,4.9,7.7-3,17.2
										c0,0-5.6,3.7-9.5,0.7C482.1,61.8,474.8,59.7,474.8,59.7z"/>
								</g>
							</g>
						</g>
						<g>
							<g>
								<g>
									<path class="st7" d="M486,64.8c4,3,9.5-0.7,9.5-0.7c2.1-2.5,3.4-4.9,4.1-7c-4.7,8-7.4-5.5-7.4-5.5s-0.2,3.3-3.5,2.6
										c-3.3-0.7-2.1-7.2-2.1-7.2s-3.5,5.6-12.5,8.6c-7.3,2.4-5.8-1-5-2.5c-2.4,2.2-5.6,5.7-4.1,8.3c2.3,3.9,9.7-1.7,9.7-1.7
										S482.1,61.8,486,64.8z"/>
								</g>
							</g>
						</g>
						<g>
							<g>
								<g>
									<polygon class="st22" points="491.9,69.2 495.1,87.5 486.5,91.9 481.9,89.3 483.5,75.6 									"/>
								</g>
							</g>
						</g>
						<g>
							<g>
								<g>
									<path class="st17" d="M482.7,82.6c2.1-0.7,9.3-3.5,8.7-11l-7.9,4.1L482.7,82.6z"/>
								</g>
							</g>
						</g>
						<g>
							<g>
								<g>
									<path class="st22" d="M474.6,58.4c0,0-3,19.1,6.3,19.1c9.3,0,11.2-6.1,11.2-6.1s4.2,1.4,5.3-1.9c1.2-3.3,0.2-8.1-5.6-5.8
										C491.9,63.7,484.6,53.2,474.6,58.4z"/>
								</g>
							</g>
						</g>
						<g>
							<g>
								<g>
									<path class="st10" d="M491.6,63.8c-0.2,0-0.3-0.1-0.5-0.2c-3.7-4.5-7.9-6.5-12.4-6c-3.4,0.4-5.7,2.1-5.7,2.2
										c-0.3,0.2-0.6,0.1-0.8-0.1c-0.2-0.3-0.1-0.6,0.1-0.8c0.1-0.1,2.6-2,6.2-2.4c6.1-0.7,10.7,3.1,13.5,6.4
										c0.2,0.2,0.2,0.6-0.1,0.8C491.9,63.8,491.8,63.8,491.6,63.8z"/>
								</g>
							</g>
						</g>
						<g>
							<g>
								<path class="st23" d="M497.1,78.7c0,0,5.2,10.4-5.9,21.5c0,0-2.2-6.7-4.4-7.4l-3,14.8l1.5-15.6c0,0-3,2.2-3.7,5.9
									c0,0-5.9-8.9-1.5-17l4.8,8.5l2.2,0.7L497.1,78.7z"/>
							</g>
						</g>
						<g>
							<g>
								<path class="st20" d="M497.9,83.9c0,0,0-5.2-0.7-5.9c0,0-6.7,9.6-11.1,11.8c0,0,5.9,2.2,5.9,7.4
									C491.9,97.3,497.9,89.9,497.9,83.9z"/>
							</g>
						</g>
						<g>
							<g>
								<path class="st20" d="M481.6,78.7c0,0,0,7.4,4.4,11.1c0,0-3.7,1.5-4.4,5.9C481.6,95.8,476.4,83.9,481.6,78.7z"/>
							</g>
						</g>
					</g>
					<path class="st18" d="M521.1,170.6c0.9-5.9,3.3-21.6,5.8-32.1c-5.6-7.7-12.2-21-12.2-21c9.6,35.9-14.2,50.6-26.7,51.2
						c-10.5,0.5-16-9.6-17.4-12.8c1.1,5.6,2.2,10.8,3.2,14.1C491,170.3,507.9,170.5,521.1,170.6z"/>
					<g>
						<g>
							<g>
								<path class="st24" d="M515.1,116.7c-0.1-0.3-0.5-0.5-0.8-0.4c-0.3,0.1-0.5,0.5-0.4,0.8c3.2,9.4,12,21.3,12.7,22.3
									c0.1-0.5,0.2-1,0.4-1.6C527,137.8,518.3,126.1,515.1,116.7z"/>
							</g>
						</g>
					</g>
					<g>
						<path class="st24" d="M465.1,126.1c-0.4,0-0.7,0-1.1,0c-1.1-5.9-3.6-20-2.8-28.3c0-0.3,0.3-0.5,0.6-0.5c0.3,0,0.5,0.3,0.5,0.6
							C461.5,106.1,464,120.4,465.1,126.1z"/>
					</g>
					<path class="st25" d="M480.9,72.6c0,0,4.6-1.4,5.4-3.4C486.3,69.2,487.5,74.2,480.9,72.6z"/>
				</g>
				<path class="st16" d="M411.2,55.7c-0.5,1.1-1.8,1.6-2.7,1.1c-1-0.5-1.4-1.8-0.8-2.8c0.5-1.1,1.8-1.6,2.7-1.1
					C411.4,53.4,411.7,54.7,411.2,55.7z"/>
				<path class="st16" d="M416.6,55.8c-0.5,1.1-1.8,1.6-2.7,1.1c-1-0.5-1.4-1.8-0.8-2.8s1.8-1.6,2.7-1.1
					C416.8,53.5,417.2,54.7,416.6,55.8z"/>
				<g>
					<path class="st26" d="M476.9,160.1c0,3.2-2.7,5.8-6.1,5.8c-3.4,0-6.1-2.6-6.1-5.8c0-3.2,2.7-5.8,6.1-5.8
						C474.2,154.4,476.9,157,476.9,160.1z"/>
					<path class="st27" d="M474.6,153.1c-3.5-2-8.1-0.7-10.2,3c-2.1,3.7-1,8.3,2.5,10.3c1.1,0.6,2.3,0.9,3.5,0.9
						c0.7,0,1.4-0.1,2.1-0.3c1.9-0.6,3.5-1.9,4.6-3.6C479.2,159.8,478.1,155.1,474.6,153.1z M475.8,157.6c-0.2,0.7-2,2.5-2.5,2.3
						c-0.5-0.2-1.6-1.4-1.6-1.4s-2.8,1.9-2.5,2.3c0.3,0.4,1.7,0.7,1.5,1.5c-0.2,0.7-2,2.5-2.3,2.6c0,0-2.8-1.8-1.8-3.8
						c0.5-1.1,5-5.6,6.4-5.3C474.4,156.1,475.9,156.8,475.8,157.6z"/>
				</g>
				<g>
					<g>
						<path class="st15" d="M450.6,166.8c-1.2,0-2.4-0.3-3.5-0.9c-3.5-2-4.6-6.7-2.5-10.3c2.1-3.7,6.7-5,10.2-3
							c3.5,2,4.6,6.7,2.5,10.3c-1,1.8-2.6,3.1-4.6,3.6C452,166.7,451.3,166.8,450.6,166.8z M451.3,152.5c-2.3,0-4.6,1.3-5.9,3.5
							c-1.9,3.2-0.9,7.3,2.1,9.1c1.5,0.9,3.2,1,4.9,0.5c1.7-0.5,3.1-1.6,4-3.2c1.9-3.2,0.9-7.3-2.1-9.1
							C453.4,152.8,452.3,152.5,451.3,152.5z"/>
					</g>
					<path class="st15" d="M454.1,160.5c-0.3-0.3-1.1-0.5-2-0.6v-0.5c0.9-0.4,1.1-1.2,1.3-1.8c0.3-1,0-2.5-1-3
						c-1.5-0.7-3.2,0-3.2,2.5c0,1.8,0.9,2.3,1.4,2.4l0,0.2c-1.1,0-2,0.1-2.3,0.4c-0.7,0.7-1.5,2.9-1.5,2.9l7.8,0.2
						C454.6,163.5,454.8,161.3,454.1,160.5z"/>
				</g>
				<g>
					<g>
						<path class="st15" d="M490.4,168c-1.2,0-2.4-0.3-3.5-0.9c-3.5-2-4.6-6.7-2.5-10.3c2.1-3.7,6.7-5,10.2-3
							c3.5,2,4.6,6.7,2.5,10.3c-1,1.8-2.6,3.1-4.6,3.6C491.8,167.9,491.1,168,490.4,168z M491.1,153.7c-2.3,0-4.6,1.3-5.9,3.5
							c-1.9,3.2-0.9,7.3,2.1,9.1c1.5,0.9,3.2,1,4.9,0.5c1.7-0.5,3.1-1.6,4-3.2c1.9-3.2,0.9-7.3-2.1-9.1
							C493.2,153.9,492.1,153.7,491.1,153.7z"/>
					</g>
					<path class="st15" d="M486.5,162.4c0.7,0.5,6,0.7,6,0.5s0-1.2,0-1.2s1.6,2.5,2.1,2.1c0.5-0.5,1.2-5.5,0.5-5.8
						c-0.7-0.2-2.8,1.8-2.5,1.8c0,0,0.2-1.6,0-1.6c-0.2,0-5.4-0.6-5.8-0.2C486.3,158.5,485.9,162,486.5,162.4z"/>
				</g>
			</g>
			<g>
				<path class="st15" d="M389.3,190.6L384.1,318c75.8,1.6,152.8,1.4,154.9-1.8c2.1-3.1,6.3-63.5,9.1-123.3L389.3,190.6z"/>
				<path class="st16" d="M398,197.5c-0.5,1.1-1.8,1.6-2.7,1.1c-1-0.5-1.4-1.8-0.8-2.8s1.8-1.6,2.7-1.1S398.6,196.4,398,197.5z"/>
				<path class="st16" d="M403.6,197.5c-0.5,1.1-1.8,1.6-2.7,1.1c-1-0.5-1.4-1.8-0.8-2.8c0.5-1.1,1.8-1.6,2.7-1.1
					S404.2,196.5,403.6,197.5z"/>
				<path class="st16" d="M409.1,197.6c-0.5,1.1-1.8,1.6-2.7,1.1s-1.4-1.8-0.8-2.8c0.5-1.1,1.8-1.6,2.7-1.1
					C409.2,195.3,409.6,196.5,409.1,197.6z"/>
				<path class="st0" d="M393.7,201.5c0,0-6.5,111.7-5.2,112.2c1.3,0.5,145.1,1.6,146.7-1.8c1.6-3.4,8.9-108.8,6.5-109.2
					C539.4,202.4,393.7,201.5,393.7,201.5z"/>
				<g>
					<g>
						<g>
							<polygon class="st28" points="457.3,354.4 457.3,354.4 457.3,354.4 							"/>
						</g>
					</g>
					<g>
						<g>
							<g>
								<path class="st29" d="M396.9,172.8c0,0,3.5-7.8,2-8.7c-1.5-0.9-2.4,3.3-3.2,2.5c-0.8-0.9,0.3-8.6-1.7-9.3
									c-1.7-0.6-0.8,7.4-1.3,7.2c-0.5-0.2-3.1-6.6-4.2-6.8c-1.2-0.2-1.1,2.3,1.4,6.3c0,0,1,1.7,0.6,1.7c-0.3,0-4.4-5-5.1-4.3
									c-0.7,0.7,0.3,2,3.6,5.8c0,0,0.7,0.7,0.2,0.5c-0.5-0.2-4.8-3.6-4.5-1.6c0.3,2,9.6,9.3,9.6,9.3L396.9,172.8z"/>
							</g>
						</g>
						<g>
							<g>
								<path class="st29" d="M550,258c0,0-4.5-7.3-3.1-8.3c1.4-1.1,2.8,3,3.5,2c0.7-1-1.4-8.4,0.5-9.4c1.6-0.8,1.7,7.2,2.2,7
									c0.5-0.2,2.2-6.9,3.3-7.3c1.1-0.3,1.3,2.2-0.6,6.4c0,0-0.7,1.8-0.4,1.8c0.3,0,3.8-5.5,4.5-4.9c0.8,0.6,0,2-2.8,6.2
									c0,0-0.6,0.8-0.1,0.5c0.5-0.2,4.3-4.2,4.3-2.2c0,2-8.3,10.4-8.3,10.4L550,258z"/>
							</g>
						</g>
						<path class="st25" d="M391.8,175.3c0,0,14.1,65.3,38.5,87.9c0,0-0.6,29.1,0.9,51l57.1,0l7.1-23.7c0,0,19.5,33.3,41.3,17.8
							c18.4-13.1,18.8-48.4,18.8-48.4l-8.2-3.3c0,0-5.9,20.3-20.9,27.2c0,0-10.8-34.4-19.5-43.6c-7.2-7.6-33.3-15.4-51.4-15.6
							c-7.2-0.1-16.9-6.5-21.9-11.7c-10.7-11.4-24.2-18.2-34.7-41.3L391.8,175.3z"/>
						<g>
							<path class="st26" d="M536.6,308.7c0.1,0,0.2,0,0.2-0.1c4.3-3,7.9-7.5,10.8-13.2c2.3-4.6,4.2-10,5.6-16.1
								c2.4-10.4,2.5-19.3,2.5-19.4c0-0.2-0.1-0.3-0.3-0.4l-8.2-3.3c-0.2-0.1-0.4,0-0.5,0.2c-0.1,0.2,0,0.4,0.2,0.5l8,3.2
								c0,1.6-0.4,9.6-2.5,18.9c-2.2,9.5-6.8,22.2-16.2,28.9c-0.2,0.1-0.2,0.4-0.1,0.6C536.4,308.6,536.5,308.7,536.6,308.7z"/>
						</g>
						<path class="st26" d="M438.5,235c-4.4,8.5-7.6,17.5-8.4,28c-24.3-22.8-38.3-87.7-38.3-87.7l7-3.8c10.2,16.9,24,30,34.7,41.3
							c4.8,5.1,14.3,11.4,21.4,11.7C447.8,225.4,441.3,229.6,438.5,235z"/>
						<g>
							<path class="st26" d="M471.7,314.2c14-13,18.8-33.2,18.8-33.2l2.2,5.8l2.4,4.2l-6.9,23.1L471.7,314.2z"/>
						</g>
						<g>
							<path class="st30" d="M489.5,279.3c0.3-0.1,0.7,0.1,0.8,0.4c1.6,5,3.8,9.1,5.2,11.4l-0.5,1.6c-1.4-2.1-4-6.6-5.9-12.6
								C489,279.8,489.2,279.4,489.5,279.3z"/>
						</g>
						<path class="st30" d="M429.2,262.3c0.8-5.9,3.2-18.3,10.5-29c0.2-0.3,0.6-0.4,0.9-0.2c0.3,0.2,0.4,0.6,0.2,0.9
							c-7.6,11.2-9.8,24.2-10.4,29.5C429.9,263,429.6,262.6,429.2,262.3z"/>
					</g>
					<g>
						<path class="st31" d="M471.7,221.8c0,0,9.7-1.2,18.7,4l-3.6,6.6l-17.6-0.9L471.7,221.8z"/>
						<path class="st26" d="M490.2,226.6c0,0,2.9,13.9-13.8,23.7c0,0-0.6-8.6-3-10.2l-8.2,16.7l6.6-18c0,0-4.2,1.7-6.3,5.9
							c0,0-4.3-12.4,3.6-20.7l3.1,11.6l2.4,1.6L490.2,226.6z"/>
						<path class="st26" d="M457.2,275.8c7-23.9,14.6-37.4,14.6-37.4l1.5,2.1c0,0-14.3,29.2-17.7,50.2c-1.4,8.5-2.2,16.8-2.8,23.6
							H451C451.8,303.1,453.5,288.3,457.2,275.8z"/>
						<path class="st14" d="M470.6,243.2c-0.9-2-0.7-6.2-0.7-6.2s3.6-2.9,6.8,2.3c0,0-1.7,3.7-4.4,4.8c-0.1,2.1,1.3,9.3,3.4,13.4
							c2.7,5.4,12.5,9.4,15.3,11.4c0.7,0.5,7.2,11.6,7.4,12.7c0.2,1.1-15.1,3.7-15.1,3.7s-11.7-7.3-15.4-22.4
							C466.2,256,469.6,245.7,470.6,243.2z"/>
						<path class="st27" d="M471,243.8c-0.5-0.5-0.8-1.6-0.9-2.7c0.3,1.2,2.1,2.4,3.4-0.1c1.3-2.6-0.8-4.5-0.8-4.5l0.3-0.3
							c1.1,0.2,2.4,1,3.7,3.1c0,0-1.7,3.8-4.4,4.8c0,0-0.1,0-0.1,0c-0.1,1.4-0.3,4.9-0.6,5.9c-0.4,1.2-0.4-5.8-0.4-5.8
							s-0.3,1.8-0.8,1.9C469.8,246.3,470.8,244.2,471,243.8z"/>
						<g>
							<g>
								<g>
									<g>
										<path class="st32" d="M473.4,203.3c0,0-5.6,2.4-6.9-2.5c-1.3-4.9,5.3-6.5,5.3-6.5s-3.5-4,1.4-7.7c4.9-3.6,7.1,1.1,7.1,1.1
											s1.1-7.1,10.3-4.6c9.2,2.5,6.4,7.6,6.4,7.6s5.6-2.4,7.8,4.6c2.2,7-3.4,7.1-3.4,7.1s2.6,1.8,1.5,3.4c-1.1,1.6-3.1,1-3.1,1
											s4.3,6.2-1.6,9.1c-6,2.9-9.8-0.6-9.8-0.6L473.4,203.3z"/>
									</g>
									<g>
										<path class="st33" d="M488.5,215.4l-15.1-12.1c0,0-5.6,2.4-6.9-2.5c-1.3-4.9,5.3-6.5,5.3-6.5s-1.6-1.8-1.1-4.1
											c1.2,3.4,5.7,1,5.7,1s-0.3,3.7,4.2,5.3c4.4,1.5,5.2-1.8,5.2-1.8c1.7,4.3,4.6,2.4,4.6,2.4s-2.7,2.8-1,4.8
											c1.7,2,3.2-0.1,3.2-0.1s-1.4,7.7,3.1,6.9c4.5-0.8,3.3-4.8,3.3-4.8c2.3,3.3,3.7,1.9,4.3,0.8c0.1,0.4,0.1,0.8-0.2,1.2
											c-1.1,1.6-3.1,1-3.1,1s4.3,6.2-1.6,9.1C492.3,218.9,488.5,215.4,488.5,215.4z"/>
									</g>
									<g>
										<g>
											<path class="st34" d="M483.2,233.6l3.3-16.3l-10.5,3.6l-4.6,10c0,0,0.9,5.2,2.4,5.5C476.2,237,483.2,233.6,483.2,233.6z"
												/>
										</g>
									</g>
									<g>
										<g>
											<path class="st35" d="M472.8,227.8c2.3,0,10.5-0.4,12.4-8.3l-9.3,1.5L472.8,227.8z"/>
										</g>
									</g>
									<g>
										<g>
											<path class="st34" d="M473,200.7c0,0-9.1,17.9,0.1,20.8c9.2,3,12.9-2.4,12.9-2.4s3.7,2.7,5.9-0.1c2.2-2.8,2.8-8-3.7-7.5
												c0,0-5.9-4.2-2.4-8.1c0,0-5,0.4-7.2-4.3C478.6,199.1,476.1,202.1,473,200.7z"/>
										</g>
									</g>
									<g>
										<g>
											<g>
												<path class="st36" d="M487.9,212c0.3,0.2,0.7,0.1,0.9-0.2c0.2-0.3,0.1-0.7-0.1-0.9c0,0-3-2.1-3.2-4.6
													c-0.1-0.9,0.2-1.7,0.9-2.5c0.2-0.2,0.2-0.5,0.1-0.7c-0.1-0.2-0.4-0.4-0.6-0.4c-0.2,0-4.6,0.3-6.6-3.9
													c-0.1-0.2-0.3-0.3-0.5-0.4c-0.2,0-0.4,0-0.6,0.2c-0.1,0.1-2.8,2.9-6,0.7c-0.3-0.2-0.7-0.1-0.9,0.2
													c-0.2,0.3-0.1,0.7,0.2,0.9c2.8,2,5.5,0.9,7-0.2c1.7,2.9,4.6,3.7,6.2,3.8c-0.4,0.8-0.6,1.6-0.5,2.5
													C484.5,209.5,487.7,211.9,487.9,212C487.9,212,487.9,212,487.9,212z"/>
											</g>
										</g>
									</g>
								</g>
							</g>
						</g>
						<path class="st25" d="M489.5,233c0,0,1.6-6.2,1-7.3c0,0-10.9,9.4-16.9,10.6c0,0,6.3,4.5,4.7,10.7
							C478.3,247,487.6,240.1,489.5,233z"/>
						<path class="st25" d="M471.7,221.8c0,0-2.3,8.8,1.8,14.6c0,0-4.9,0.6-7.1,5.6C466.4,242,464,226.3,471.7,221.8z"/>
					</g>
					<path class="st25" d="M472.2,213.9c0,0,3.7,2.6,7.7,1.1c0,0-4.7,4-6.1,2.7C472.4,216.5,472.2,213.9,472.2,213.9z"/>
				</g>
				<g>
					<path class="st26" d="M468,304.7c0.1,3.2-2.6,5.8-6,5.9c-3.4,0.1-6.1-2.5-6.2-5.6c-0.1-3.2,2.6-5.8,6-5.9
						C465.2,299,468,301.5,468,304.7z"/>
					<path class="st27" d="M465.6,297.7c-3.5-1.9-8.1-0.5-10.1,3.2c-2.1,3.7-0.8,8.3,2.7,10.3c1.1,0.6,2.3,0.9,3.5,0.9
						c0.7,0,1.4-0.1,2.1-0.4c1.9-0.6,3.5-1.9,4.5-3.7C470.3,304.3,469.1,299.7,465.6,297.7z M466.9,302.2c-0.1,0.7-2,2.5-2.5,2.4
						c-0.5-0.2-1.6-1.4-1.6-1.4s-2.8,2-2.5,2.4c0.3,0.4,1.7,0.7,1.6,1.4c-0.1,0.7-2,2.6-2.2,2.6c0,0-2.8-1.7-1.9-3.7
						c0.5-1.1,4.9-5.7,6.3-5.4C465.5,300.7,467,301.4,466.9,302.2z"/>
				</g>
				<g>
					<g>
						<path class="st16" d="M441.9,311.9c-1.2,0-2.4-0.3-3.5-0.9c-3.5-1.9-4.7-6.6-2.7-10.3c2.1-3.7,6.6-5.2,10.1-3.2
							c3.5,1.9,4.7,6.6,2.7,10.3c-1,1.8-2.6,3.1-4.5,3.7C443.3,311.8,442.6,311.9,441.9,311.9z M442.3,297.6c-2.3,0-4.6,1.4-5.8,3.6
							c-1.8,3.3-0.8,7.3,2.3,9c1.5,0.8,3.2,1,4.9,0.4c1.7-0.5,3.1-1.7,4-3.3c1.8-3.3,0.8-7.3-2.3-9
							C444.4,297.8,443.4,297.6,442.3,297.6z"/>
					</g>
					<path class="st16" d="M445.2,305.5c-0.3-0.3-1.1-0.5-2.1-0.6l0-0.5c0.9-0.4,1.1-1.3,1.3-1.8c0.3-1,0-2.5-1.1-3
						c-1.5-0.7-3.2,0.1-3.2,2.6c0,1.8,1,2.3,1.5,2.4l0,0.2c-1.1,0-2,0.2-2.3,0.5c-0.7,0.7-1.4,3-1.4,3l7.8,0.1
						C445.8,308.5,446,306.3,445.2,305.5z"/>
				</g>
				<g>
					<g>
						<path class="st16" d="M481.7,312.3c-1.2,0-2.4-0.3-3.5-0.9c-3.5-1.9-4.7-6.6-2.7-10.3c2.1-3.7,6.6-5.2,10.1-3.2
							c3.5,1.9,4.7,6.6,2.7,10.3c-1,1.8-2.6,3.1-4.5,3.7C483.1,312.1,482.4,312.3,481.7,312.3z M482.1,298c-2.3,0-4.6,1.4-5.8,3.6
							c-1.8,3.3-0.8,7.3,2.3,9c1.5,0.8,3.2,1,4.9,0.4c1.7-0.5,3.1-1.7,4-3.3c1.8-3.3,0.8-7.3-2.3-9
							C484.2,298.2,483.2,297.9,482.1,298z"/>
					</g>
					<path class="st16" d="M477.7,306.8c0.7,0.4,6,0.6,6,0.3c0-0.2,0-1.2,0-1.2s1.7,2.5,2.1,2c0.5-0.5,1-5.5,0.3-5.8
						c-0.7-0.2-2.7,1.9-2.5,1.9c0,0,0.2-1.6,0-1.6c-0.2,0-5.4-0.4-5.8-0.1C477.4,302.9,477,306.4,477.7,306.8z"/>
				</g>
			</g>
			<g>
				<path class="st15" d="M373.2,189.1L224.9,187c-3.8,58.2-6.6,116.9-3.1,121.2c3,3.6,73.8,6.7,146.2,8.2L373.2,189.1z"/>
				<path class="st16" d="M232.3,192.8c-0.5,1.1-1.8,1.6-2.7,1.1c-1-0.5-1.4-1.7-0.8-2.8c0.5-1.1,1.8-1.6,2.7-1.1
					C232.4,190.4,232.8,191.7,232.3,192.8z"/>
				<path class="st16" d="M237.5,192.8c-0.5,1.1-1.8,1.6-2.7,1.1c-1-0.5-1.4-1.7-0.8-2.8c0.5-1.1,1.8-1.6,2.7-1.1
					C237.7,190.5,238.1,191.8,237.5,192.8z"/>
				<path class="st16" d="M242.6,192.9c-0.5,1.1-1.8,1.6-2.7,1.1c-1-0.5-1.4-1.7-0.8-2.8c0.5-1.1,1.8-1.6,2.7-1.1
					C242.8,190.6,243.1,191.8,242.6,192.9z"/>
				<path class="st0" d="M228.5,197c0,0-6.1,105.9-3.1,108.4c3.1,2.5,137.9,7,137.9,6.1c0-0.9,6.3-109.5,4.9-110.2
					C366.8,200.6,228.5,197,228.5,197z"/>
				<g>
					<g>
						<g>
							<g>
								<g>
									<g>
										<path class="st29" d="M361.2,209.4c-0.2-0.4-0.8-0.7-1.3-0.5c-0.3,0.1-0.9,0.7-1.1,0.3c-0.1-0.1,0-0.4,0-0.5
											c0-0.8,3.1-5.7,1.2-6.5c-2.1-0.9-3.9,8.3-4.8,9.2c-0.9,0.9-1.2-3.4-2.9-2.6c-1.6,0.9,1.8,9.3,1.8,9.3l0,0
											c-5.3,6.2-21.7,21.1-29.3,22.8c0,0-24.5-4-35.1-5.7c-10.7-1.6-1.8,31.5-1.8,31.5s32.9-3.4,43.6-10.2
											c9.7-6.1,24.2-31.5,27.2-37.1c0.2-0.4,1-0.8,1.3-1c0.5-0.4,1-0.8,1.5-1.2c0.5-0.4,1.1-0.8,1.5-1.2c0.3-0.4,0.6-1,0.7-1.5
											c0.1-0.5,0.1-1.1-0.2-1.5c-0.1-0.1-0.2-0.2-0.3-0.4c-0.1-0.2,0-0.5,0.1-0.7c0.1-0.5,0.1-1.1-0.3-1.4
											c-0.5-0.3-1.3,0-1.6-0.5c-0.1-0.2-0.1-0.4-0.1-0.6C361.2,209.5,361.2,209.4,361.2,209.4z"/>
									</g>
								</g>
								<g>
									<g>
										<path class="st37" d="M360,218.5c0.5-0.4,1-0.8,1.5-1.2c0.5-0.4,1.1-0.8,1.5-1.2c0.1-0.2,0.3-0.5,0.4-0.7
											c-0.1,0.1-0.1,0.1-0.2,0.2c-0.5,0.3-1,0.7-1.5,0.9c-0.3,0.1-0.7,0.2-1,0.1c-0.1-0.1-0.2-0.1-0.3-0.3
											c-0.1-0.1-0.1-0.3,0-0.4c0.1-0.1,0.1-0.3,0.2-0.4c0.4-0.5,0.8-0.9,1.2-1.3c0.3-0.2,0.6-0.4,0.7-0.8c-0.1,0-0.1,0-0.2,0
											c-0.5,0.3-0.9,0.7-1.3,1c-0.5,0.3-1,0.6-1.5,0.6c-0.1,0-0.3,0-0.4,0c-0.2-0.1-0.3-0.3-0.2-0.5c0-0.4,0.2-0.7,0.4-1
											c0.5-0.7,1.2-1.4,1.8-2.1c-0.6,0.3-1,0.8-1.5,1.2c-0.5,0.4-1.1,0.8-1.7,0.9c-0.2,0-0.5,0-0.7-0.2
											c-0.6-0.5,0.1-1.5,0.4-1.9c0.3-0.4,0.6-0.7,0.9-1c-0.7,0.4-1.4,0.8-1.9,1.3c-0.4,0.4-0.8,1-0.8,1.6c0,0.3,0,0.7,0.2,0.9
											c0.1-0.1,0.5,0.1,0.6,0.2c0.3,0.1,0.5,0.2,0.7,0.4c0.4,0.3,0.8,0.6,1,1c0.1,0.2,0.2,0.3,0.2,0.5c0.1,0.2,0.2,0.4,0.2,0.6
											c0.1,0.3,0.2,0.5,0.2,0.8c0.1,0.5,0,1-0.2,1.5C359.1,219,359.8,218.7,360,218.5z"/>
									</g>
								</g>
							</g>
							<g>
								<g>
									<g>
										<path class="st3" d="M352.5,218.6c-6.9,7.6-16.4,13.3-23.5,16.9c-5.9,3-12.9,3.4-19.1,1.1c-5-1.8-18.5-7.6-23-9.1
											c0.2,5.4,9.4,15,9.9,20.3c0.5,4.4,1.1,8.7,1.8,13.1c0.5,2.7,1,5.5,1.8,8.1c6.6,2.4,15.2,4.5,21.6,2.1
											c18.1-6.9,36.1-49.3,36.1-49.3C356.3,218.1,352.5,218.6,352.5,218.6z"/>
									</g>
								</g>
							</g>
						</g>
						<path class="st4" d="M279.1,225.1c0,0,10.2,1.8,21.7,8.8c11.5,7,8.9,38.9,8.9,38.9c-0.1,3.2-0.6,23.1-1.9,37.6
							c0,0-47-2-66.6-3.1c-4.4-15.6-8.9-35.2-7.7-47.2C235.6,237.8,249.7,231.6,279.1,225.1z"/>
						<path class="st3" d="M285,309.4l-43.9-2.1c-4.1-14.6-8.3-32.6-7.9-44.7c8-10,19.4-21.3,25.4-15.3c8.9,8.9,11.2,30,12.2,37.7
							C271.6,291.3,277.3,303.8,285,309.4z"/>
						<g>
							<g>
								<path class="st29" d="M263.6,229C263.6,229,263.6,229,263.6,229c0.5-0.1,1-0.3,1.5-0.4c0.1,0,0.3-0.1,0.4-0.1
									c0.5-0.1,1-0.3,1.5-0.4c0.1,0,0.3-0.1,0.4-0.1c1.5-0.4,3-0.8,4.7-1.2c0.4-0.1,0.7-0.2,1.1-0.3c0.4-0.1,0.7-0.2,1.1-0.3
									c0.5-0.1,0.9-0.2,1.4-0.3c0.3-0.1,0.6-0.1,0.9-0.2c0.8-0.2,1.6-0.4,2.4-0.5c0,0,6.5,1.1,14.9,5.1c0.5,4.3,0.3,12.9-9.3,12.6
									C273.4,242.5,265.8,232.2,263.6,229L263.6,229z"/>
							</g>
						</g>
						<path class="st4" d="M255.4,232c0.4,0.5,0.7,1,1,1.6c1.4,2.1,2.5,4.3,3.9,6.3l-1.7,7.3c4.8,5.3,9.1,21.4,9.5,29.8
							c0.5,13.6,3.9,24.8,7.5,32.1l-25.1-1.2c-0.7-0.8-1.6-1.9-2.2-2.5c-14-15.2-22.6-45.8-14.6-58.3
							C238.4,239.4,248.4,234.6,255.4,232z"/>
					</g>
					<g>
						<g>
							<g>
								<path class="st14" d="M285.9,193c-0.4-1.7-0.9-3.4-2.8-4.2c-1.5-0.7-3.6-0.3-4.8-1.4c-0.8-0.8-1.1-2.1-2-2.7
									c-1.2-0.7-2.7,0-3.9,0.5c-1.8,0.7-3.9,1.1-5.8,1.3c-1.6,0.1-2.9-0.5-4.5,0.5c-0.9,0.6-1.6,1.5-2.5,2.2
									c-0.7,0.5-1.5,0.8-2.2,1.2c-3.2,1.6-5.3,4.9-6.3,8.3c-0.8,2.9-1,6.3-3.8,8c-1.4,0.9-3.8,0.3-4.6,1.8
									c-2.5,4.8,2.3,6.1,3.2,7.4c1.3,1.8-2.5,6.9-0.7,9.7c3.3,5.1,6.4,1.2,8.4,1.7c2.6,0.7,3.3,5.3,6.1,5.1
									c5.4-0.3,1.8-5.3,6.7-5.7c3.8-0.3,3.2-5.3,3-7c-0.1-1,6,1.5,6.2,0.5c0.3-1.6,2.2-2.2,3.7-2.5c1-0.2,2.1-0.5,2.8-1.2
									c1.3-1.2,1.2-3.2,1-4.9c0-0.4,0.1-0.8,0.4-1.1c0.4-0.3,0.8-0.7,1.1-1c2-2.1,3.5-4.9,3.6-7.9c0.1-2.3-0.7-4.3-1.5-6.4
									C286.3,194.6,286.1,193.8,285.9,193z"/>
							</g>
						</g>
						<g>
							<g>
								<path class="st27" d="M277,193.1c-1,1.3-5.4,1.8-8.3,2.4c-2.9,0.6-1.9,2.5-5.2,8.8s-9.3,5-9.3,5l3.2,5.1
									c3.4,3.9,2.1,6.1,1.5,8c-0.7,1.9-3.5-2.3-7.3,1.2c-3.3,2.9-5.8-0.8-6.5-2c-0.4,1.4-0.5,2.8,0.2,3.9c3.3,5.1,6.4,1.2,8.4,1.7
									c2.6,0.7,3.3,5.3,6.1,5.1c5.4-0.3,1.8-5.3,6.7-5.7c3.8-0.3,3.2-5.3,3-7c-0.1-1,6,1.5,6.2,0.5c0.3-1.6,2.2-2.2,3.7-2.5
									c1-0.2,2.1-0.5,2.8-1.2c1.3-1.2,1.2-3.2,1-4.9c0-0.4,0.1-0.8,0.4-1.1c0.4-0.3,0.8-0.7,1.1-1c2-2.1,3.5-4.9,3.6-7.9
									c0.1-2.3-0.7-4.3-1.5-6.4c-0.3-0.7-0.5-1.5-0.7-2.3c-0.1-0.5-0.3-1-0.5-1.5C284.3,198.4,277,193.1,277,193.1z"/>
							</g>
						</g>
						<g>
							<g>
								<path class="st38" d="M261.1,214.2c0,0-10.7-6.3-11.1-11.6c0-0.1-1.6,0.7-1.4,3.2c0.2,2.5,9.3,11.5,14.4,12.2L261.1,214.2z"
									/>
							</g>
						</g>
						<g>
							<g>
								<path class="st29" d="M272.4,232.5l-4.6-14.7l10.3-1.3l4.7,11.2C280.8,231.2,276.3,232.3,272.4,232.5z"/>
							</g>
						</g>
						<g>
							<g>
								<path class="st39" d="M281.4,224.3c-1.7,0.5-7.6,1.5-10.3-5.5l8.2,0.6L281.4,224.3z"/>
							</g>
						</g>
						<g>
							<g>
								<path class="st40" d="M253.9,212.6c2.9,2.7,6.5,5.1,9,5.5l-1.9-3.8c0,0-3.4-2-6.4-4.7C253.4,211.2,253.7,212.2,253.9,212.6z
									"/>
							</g>
						</g>
						<g>
							<g>
								<path class="st29" d="M282.5,202.5c0,0,7.7,15.2-0.3,17.6c-8,2.4-13.9-1.7-13.9-1.7s-5.4,3.2-7.2-1.6
									c-1.8-4.8,2.4-7.5,5.1-4.8c0,0,7.7-3.2,8.3-11.7C274.5,200.4,278.4,202.9,282.5,202.5z"/>
							</g>
						</g>
						<g>
							<g>
								<path class="st41" d="M266.6,212.2C266.6,212.2,266.7,212.2,266.6,212.2c6.3-3.3,7.8-9.3,8.1-11.6c4.2,2.8,9.8,2,10,2
									c0.3,0,0.5-0.3,0.5-0.6c0-0.3-0.3-0.5-0.6-0.5c-0.1,0-6.1,0.8-10-2.3l-0.9-0.7l0,1.1c0,0.1-0.2,7.8-7.5,11.6
									c-0.3,0.1-0.4,0.5-0.2,0.7C266.1,212.2,266.4,212.3,266.6,212.2z"/>
							</g>
						</g>
					</g>
					<path class="st25" d="M275.7,214.2c0,0,3,1.3,6.8,0.7C282.5,214.9,280.1,222.5,275.7,214.2z"/>
				</g>
				<g>
					<path class="st26" d="M295.1,299.6c0,3.2-2.7,5.8-6.1,5.8c-3.4,0-6.1-2.6-6.1-5.8c0-3.2,2.7-5.8,6.1-5.8
						C292.4,293.8,295.1,296.4,295.1,299.6z"/>
					<path class="st27" d="M292.8,292.6c-3.5-2-8.1-0.7-10.2,3c-2.1,3.7-1,8.3,2.5,10.3c1.1,0.6,2.3,0.9,3.5,0.9
						c0.7,0,1.4-0.1,2.1-0.3c1.9-0.6,3.5-1.9,4.6-3.6C297.4,299.2,296.3,294.6,292.8,292.6z M294,297c-0.2,0.7-2,2.5-2.5,2.3
						c-0.5-0.2-1.6-1.4-1.6-1.4s-2.8,1.9-2.5,2.3c0.3,0.4,1.7,0.7,1.5,1.5c-0.2,0.7-2,2.5-2.3,2.6c0,0-2.8-1.8-1.8-3.8
						c0.5-1.1,5-5.6,6.4-5.3C292.6,295.5,294.1,296.3,294,297z"/>
				</g>
				<g>
					<g>
						<path class="st15" d="M268.8,306.3c-1.2,0-2.4-0.3-3.5-0.9c-3.5-2-4.6-6.7-2.5-10.3c2.1-3.7,6.7-5,10.2-3
							c3.5,2,4.6,6.7,2.5,10.3c-1,1.8-2.6,3.1-4.6,3.6C270.2,306.2,269.5,306.3,268.8,306.3z M269.5,292c-2.3,0-4.6,1.3-5.9,3.5
							c-1.9,3.2-0.9,7.3,2.1,9.1c1.5,0.9,3.2,1,4.9,0.5c1.7-0.5,3.1-1.6,4-3.2c1.9-3.2,0.9-7.3-2.1-9.1
							C271.6,292.2,270.6,292,269.5,292z"/>
					</g>
					<path class="st15" d="M272.3,300c-0.3-0.3-1.1-0.5-2-0.6v-0.5c0.9-0.4,1.1-1.2,1.3-1.8c0.3-1,0-2.5-1-3c-1.5-0.7-3.2,0-3.2,2.5
						c0,1.8,0.9,2.3,1.4,2.4l0,0.2c-1.1,0-2,0.1-2.3,0.4c-0.7,0.7-1.5,2.9-1.5,2.9l7.8,0.2C272.8,302.9,273,300.7,272.3,300z"/>
				</g>
				<g>
					<g>
						<path class="st15" d="M308.6,307.4c-1.2,0-2.4-0.3-3.5-0.9c-3.5-2-4.6-6.7-2.5-10.3c2.1-3.7,6.7-5,10.2-3
							c3.5,2,4.6,6.7,2.5,10.3c-1,1.8-2.6,3.1-4.6,3.6C310,307.3,309.3,307.4,308.6,307.4z M309.3,293.1c-2.3,0-4.6,1.3-5.9,3.5
							c-1.9,3.2-0.9,7.3,2.1,9.1c1.5,0.9,3.2,1,4.9,0.5c1.7-0.5,3.1-1.6,4-3.2c1.9-3.2,0.9-7.3-2.1-9.1
							C311.4,293.4,310.4,293.1,309.3,293.1z"/>
					</g>
					<path class="st15" d="M304.8,301.9c0.7,0.5,6,0.7,6,0.5c0-0.2,0-1.2,0-1.2s1.6,2.5,2.1,2.1c0.5-0.5,1.2-5.5,0.5-5.8
						c-0.7-0.2-2.8,1.8-2.5,1.8c0,0,0.2-1.6,0-1.6c-0.2,0-5.4-0.6-5.8-0.2C304.5,298,304.1,301.4,304.8,301.9z"/>
				</g>
			</g>
		</g>
		<g>
			<ellipse class="st2" cx="161.3" cy="359.9" rx="119.1" ry="17.9"/>
			<g>
				<path class="st8" d="M71.7,334.3c0,0-11.8,0.5-12.1,2c-0.3,1.5-0.2,6.6,0.1,7.1c0.3,0.5,2.3,1,2.3,1s1.2,12.1,2,13.1
					c0.8,1,16.8,1.4,18.4,0.3c1.6-1.2,2.3-14,2.3-14s2.5,0.1,3.1-1c0.6-1.2,0.2-6.7-0.8-7.3C85.5,334.2,71.7,334.3,71.7,334.3z"/>
				<path class="st10" d="M87.9,342.7c0.6-1.2,0.2-6.7-0.8-7.3c-1.1-0.8-7.7-1-11.9-1.1l3.6,3.1c0,0,1.6,6.9-1,7.1
					c-2.7,0.2-15.8-0.1-15.8-0.1s0.1,0.6,0.2,1.6l0,0C65.9,346.2,74,346,74,346s0.1,9.8,0,10.6c-0.2,0.8-3.8,1.6-3.8,1.6
					c5,0.2,11.3,0.1,12.3-0.6c1.4-1,2.1-10.7,2.3-13.3l-4.4-0.1l4.5-0.6l0.7,0C86.2,343.7,87.5,343.5,87.9,342.7z"/>
				<path class="st42" d="M73,334.6c0,0-10.6,0.8-10.8,2.1c-0.1,1.3,20.9,1,23.1-0.3C87.5,335,73,334.6,73,334.6z"/>
				<g>
					<path class="st33" d="M65.8,284.1l-11.1,5.6l10-8.8c-4.3-11.9-10.3-23.5-18.9-31.5l-5.4,3.3c0,0,2.4-3.3,3.5-4.9
						c-0.9-0.7-1.8-1.4-2.7-2.1l-2.1,1.4l0.8-2.2c-2.8-1.9-5.9-3.4-9.2-4.5c0,0-2.7,11.8,1.7,29.5l4.2-0.1l-2.6,1.5l0.5,1.2
						c0,0,8.1-1.3,8.4-1.3c0.3,0-6,3.4-8.7,4.9c5.1,15.9,16,35.4,38.3,55.3l2.2,0.1C74.6,331.3,73.5,307.5,65.8,284.1z"/>
					<path class="st36" d="M37.1,251.9c0,0,31.8,68.5,37.6,79.7l-2.2-0.1C72.5,331.4,37.8,254.7,37.1,251.9z"/>
				</g>
				<g>
					<g>
						<path class="st32" d="M46.7,306.1l-3.1,7.3l0.6-8c-3.2-0.7-6.7-1.2-10.5-1.3l-1.7,4l0.5-4.1c-2.9-0.1-6.1,0-9.5,0.3
							c0,0,2.9,7.6,9.4,14.8l6.7-4.9l-4.7,5.7l1.1,1.4l3.6-2.5l-2.2,4.7c3.2,2.7,7,5,11.4,6.5l4.1-6.8l-1.3,7.6
							c6.3,1.6,13.7,1.5,22.3-1.4C73.6,329.6,69.8,311.8,46.7,306.1z"/>
					</g>
					<g>
						<path class="st32" d="M88.1,293.7l-8.8-1.2l8.7-0.4c-0.2-3.6-0.7-7.6-1.6-11.8l-4.8-0.6l4.5-0.6c-0.8-3.2-1.8-6.6-3.1-10.2
							c0,0-7.4,5.3-13.3,14.5l7.2,5.9l-7.6-3.4l-1.2,1.6l3.7,3.2l-5.7-1c-2,4.2-3.4,9-3.8,14.3l8.5,2.5l-8.6,0.7
							c0,1.7,0.2,3.4,0.4,5.1c1.9,1,3.4,2.7,4.6,4.5c1.6,2.3,2.6,4.9,3.5,7.4c0,0.1-0.1,0.1-0.1,0.1c-0.3,0.5-1,0.2-1.4,0
							c-0.9-0.4-1.7-0.9-2.4-1.5c-0.7-0.5-1.3-1.1-1.8-1.7c1.2,3.2,2.9,6.5,5.2,9.9C70.3,331,88.6,320.5,88.1,293.7z"/>
					</g>
					<polygon class="st36" points="72.7,329.9 81.4,277.4 72,327.4 28.4,307.9 					"/>
				</g>
				<path class="st36" d="M70.1,328.7c0,0-0.2,6.8,1.2,7.4c1.3,0.6,4.5,0.4,4.5,0.4s0.5-6.9-0.7-8.2C73.9,327,70.1,328.7,70.1,328.7
					z"/>
			</g>
			<g>
				<g>
					<g>
						<g>
							<g>
								<g>
									<g>
										<path class="st43" d="M139.8,356c0.3,0,0.5-0.1,0.8-0.2c1.7-0.7,10.5-4.5,10-6c-0.5-1.6-5-3.8-10.2,1.9
											C136.3,356.3,138.7,356.2,139.8,356z"/>
									</g>
								</g>
							</g>
							<g>
								<g>
									<g>
										<path class="st44" d="M140.4,351.7c0.2-0.3,0.5-0.5,0.7-0.7c-0.6,1.9,2.5,2.3,6.2,0.5c2.3-1.1,2.6-2.1,2.5-2.7
											c0.4,0.3,0.7,0.7,0.8,1c0.5,1.5-8.3,5.3-10,6c-0.2,0.1-0.5,0.2-0.8,0.2C138.7,356.2,136.3,356.3,140.4,351.7z"/>
									</g>
								</g>
							</g>
						</g>
						<g>
							<g>
								<g>
									<path class="st45" d="M139.4,354.2C139.4,354.2,139.4,354.2,139.4,354.2c-0.3-0.1-0.4-0.2-0.5-0.4c0-0.1-0.1-0.2-0.1-0.3
										c-0.1-0.3-0.2-0.5-0.3-0.8c-0.5-1.5-1-3-1.5-4.5c-0.5-1.5-1-3-1.5-4.5c-0.2-0.7-0.5-1.3-0.7-2l2.7-0.5
										c0.1,0.2,0.1,0.5,0.2,0.7c0.3,1.2,0.7,2.4,1,3.6c0.4,1.5,0.9,3.1,1.3,4.6c0.2,0.6,0.4,1.3,0.5,1.9c0.2,0.6,0.5,1.3,0.1,1.8
										c-0.2,0.2-0.4,0.3-0.7,0.4C139.8,354.3,139.6,354.2,139.4,354.2z"/>
								</g>
							</g>
						</g>
					</g>
					<path class="st46" d="M132.3,303.8c-2.8-0.6-22.6,5-34.3,8.4c2.3,4.5,4.5,9.2,7.6,13.1c8.6-3.9,16.7-8,18.4-8.4
						c1.8-0.4,12.2,31.9,12.2,31.9l3.9-1.8C140.1,347,136.7,304.8,132.3,303.8z"/>
				</g>
				<polygon class="st42" points="180.8,304.3 182.6,362.1 185.4,362.1 187.3,304.3 				"/>
				<polygon class="st42" points="230.2,293.6 237.1,350.1 234.8,351 225.6,295 				"/>
				<path class="st18" d="M97.1,296c0,0,36.2-10,40.4-10.9c4.2-0.9,95.5,2.6,96,4c0.5,1.4,0,5.5,0,5.5s-47.6,12-49.9,12
					c-2.3,0-86-1.4-86-4.6S97.1,296,97.1,296z"/>
				<g>
					<path class="st47" d="M163.4,285.4l-11.7,3.4l2.9,1.1l17.8,0.7c0,0,8.8-2.8,8.9-3.9C181.4,285.6,163.4,285.4,163.4,285.4z"/>
					<g>
						<path class="st48" d="M162.7,285.6c0,0,0.2-8.1,0-9.2c-0.2-1.1,18.9,0.7,18.9,0.7l-0.5,9.9L162.7,285.6z"/>
						<path class="st49" d="M151.9,290.6l17.2,1.3c6.3-0.3,11.7-2.9,12.5-3.3c1.8-0.9,1.1-35.6-8.3-37.6c-9.5-2-16.5,0-16.5,0
							s14.9-0.7,16.7,1.6c1.8,2.3,5.4,7.4,6.3,18.7c0.9,11.3,0.7,15.8,0,15.8c-0.3,0-5,2.4-10.8,2.7c0,0-17.3-1.1-17.4-0.9
							C151.4,289.2,151.9,290.6,151.9,290.6z"/>
					</g>
					<path class="st49" d="M201,238.7c0,0,1.1,0.9,1.1,7.4c0,6.5-5.2,35.8-6.3,37.2c-1.1,1.4-58.1-1.4-59.5-2.3
						c-1.4-0.9-1.4-1.9-1.4-1.9L201,238.7z"/>
					<path class="st47" d="M194.2,282c0,0,9-41.9,6.8-43.3c-2.3-1.4-57.9-5.4-60.2-2.7c-2.7,3.2-7.1,42.7-5.9,43.9
						C136.1,281.1,193.3,283.6,194.2,282z"/>
					<path class="st50" d="M141.7,236.5c0,0-6.5,34-4.5,35.8c2,1.8,56.8,3.2,57,2.7c0.2-0.5,7.2-34.9,5.4-35.6
						C197.9,238.7,145.8,235.6,141.7,236.5z"/>
					<g>
						<path class="st51" d="M196,255.4C196,255.4,196,255.4,196,255.4l-55.2-2.3c0,0-0.1,0-0.1,0c0,0,0-0.1,0-0.1l2-14.2
							c0-0.1,0.1-0.1,0.1-0.1l55.3,2.2c0,0,0.1,0,0.1,0s0,0.1,0,0.1l-2.1,14.2C196.2,255.4,196.1,255.4,196,255.4z M141,252.9
							l55,2.2l2.1-14L143,239L141,252.9z"/>
					</g>
					<path class="st36" d="M196.1,245.1c-0.3-0.1-0.8,0.1-0.9,0.5c-0.1,0.3-0.1,0.6,0.1,0.8c-1.8,2.4-3.6,4.8-4.5,5.8
						c-0.1-0.1-0.2-0.2-0.3-0.2c-0.2-0.1-0.5,0-0.6,0.1c-0.3-0.3-0.6-0.8-0.9-1.1c-0.2-0.2-0.3-0.4-0.4-0.5c0.2-0.4,0-0.8-0.3-1
						c-0.3-0.1-0.7,0-0.9,0.4c-0.5-0.1-1.1-0.1-2-0.1c-0.8,0-1.8-0.1-2.4-0.2c0.1-0.3-0.1-0.7-0.4-0.8c-0.2-0.1-0.5,0-0.7,0.2
						c-0.6-0.7-1.5-2-2.2-3c-0.6-0.9-1.1-1.6-1.5-2.1c0.2-0.4,0-0.8-0.3-1c-0.3-0.1-0.8,0.1-0.9,0.5c0,0.1,0,0.1-0.1,0.2
						c-0.7,0.5-2.1,1.8-4.8,4.4c-1.6,1.6-3.7,3.6-4.7,4.4c-0.1-0.1-0.2-0.2-0.3-0.3c-0.2-0.1-0.5,0-0.7,0.1
						c-0.5-0.7-1.1-2.2-1.7-3.3c-1.1-2.2-1.9-3.9-2.5-4.7c0.1-0.4,0-0.8-0.3-0.9c-0.3-0.1-0.7,0-0.9,0.4c-1.1,0.3-2.8,1.9-5.1,3.9
						c-0.7,0.6-1.5,1.4-2.1,1.8c-0.1-0.1-0.2-0.2-0.3-0.3c-0.2-0.1-0.4-0.1-0.6,0.1c-0.4-0.8-0.9-2.1-1.3-3.1
						c-0.7-1.8-1.1-2.9-1.4-3.4c0.2-0.4,0-0.8-0.3-1c-0.3-0.1-0.8,0.1-0.9,0.5c-0.1,0.2-0.1,0.5,0,0.7c-0.7,0.6-1.8,1.9-4,4.6
						c-2.1,2.6-4.1,5.3-4.1,5.4l0.4,0.3c3.1-4.2,6.7-8.6,8-9.9c0,0,0,0,0,0c0.2,0.1,0.4,0,0.6-0.1c0.3,0.6,0.9,2.1,1.3,3.2
						c0.6,1.6,1.1,2.7,1.4,3.3c0,0,0,0,0,0c-0.2,0.4,0,0.8,0.3,1c0.3,0.1,0.8-0.1,0.9-0.5c0-0.1,0.1-0.2,0.1-0.2
						c0.5-0.3,1.1-0.9,2.3-2c1.4-1.3,3.5-3.2,4.7-3.7c0,0.2,0.2,0.5,0.4,0.5c0.2,0.1,0.5,0,0.7-0.1c0.7,0.9,1.6,2.9,2.4,4.5
						c0.8,1.8,1.4,2.9,1.8,3.5c-0.1,0.4,0,0.8,0.3,0.9c0.3,0.1,0.8-0.1,0.9-0.5c0-0.1,0-0.2,0.1-0.2c0.8-0.6,2.3-1.9,5-4.6
						c1.6-1.5,3.6-3.5,4.6-4.3c0.1,0.1,0.2,0.2,0.3,0.3c0.2,0.1,0.5,0,0.7-0.1c0.4,0.5,0.9,1.2,1.4,1.9c1,1.4,1.8,2.5,2.3,3.1
						c-0.1,0.4,0,0.8,0.3,0.9c0.3,0.1,0.6,0,0.8-0.2c0.6,0.1,1.6,0.2,2.6,0.2c0.6,0,1.4,0.1,1.9,0.1c0,0.3,0.1,0.5,0.4,0.6
						c0.2,0.1,0.5,0,0.7-0.1c0.1,0.1,0.2,0.3,0.3,0.4c0.4,0.5,0.7,0.9,0.9,1.1c0,0,0,0,0,0c-0.2,0.4,0,0.8,0.3,1
						c0.3,0.1,0.8-0.1,0.9-0.5c0-0.1,0-0.1,0.1-0.2c0.4-0.4,1.1-1.2,2.6-3.2c0.9-1.1,1.7-2.2,2.2-2.9c0.3,0.1,0.7-0.1,0.8-0.5
						C196.6,245.7,196.5,245.3,196.1,245.1z"/>
					<path class="st52" d="M196.1,248c-0.2-0.1-0.4-0.1-0.6,0c-0.7-0.7-1.7-1.6-2.4-2.1c0-0.3-0.1-0.6-0.4-0.7
						c-0.3-0.1-0.6,0-0.8,0.3c-0.5-0.1-1.2-0.4-1.9-0.6c-2.1-0.6-3.8-1.2-4.8-1.3c-0.1-0.2-0.2-0.3-0.4-0.4
						c-0.3-0.1-0.8,0.1-0.9,0.5c0,0.1-0.1,0.2-0.1,0.3c-0.7,0.5-1.5,1.6-2.5,2.8c-0.2,0.3-0.4,0.5-0.6,0.8c-0.3-0.1-0.7,0.1-0.9,0.5
						c0,0,0,0,0,0c-0.7,0-2,0-2.7-0.1c-0.4,0-0.8,0-0.9,0c-0.4,0-1.2,0.4-2.6,1.2c-0.9,0.5-2.2,1.2-2.5,1.2c-0.2,0-0.5-0.7-0.7-1.1
						c-0.2-0.4-0.4-0.9-0.7-1.3c0,0,0,0,0-0.1c0.2-0.4,0-0.8-0.3-1c-0.3-0.1-0.7,0-0.9,0.4c-0.7,0.1-2.1,0.6-4.2,1.3
						c-1.7,0.6-3.7,1.3-4.7,1.5c0-0.2-0.2-0.4-0.4-0.5c-0.3-0.1-0.6,0-0.8,0.2c-0.7-0.6-1.8-2-2.7-3.1c-0.8-1.1-1.6-2-2.2-2.6
						c0,0,0,0,0-0.1c0.2-0.4,0-0.8-0.3-1c-0.3-0.1-0.8,0.1-0.9,0.5c0,0.1-0.1,0.2-0.1,0.2c-0.8,0.3-2.4,1.4-6,4.2
						c-2.9,2.3-5.6,4.7-5.7,4.8l0.3,0.3c5.8-5,10-8.2,11.4-8.9c0.1,0.1,0.2,0.2,0.3,0.3c0.2,0.1,0.4,0,0.6-0.1
						c0.5,0.5,1.3,1.5,2.1,2.5c1.2,1.5,2.1,2.7,2.8,3.2c-0.1,0.4,0.1,0.7,0.4,0.9c0.3,0.1,0.8-0.1,0.9-0.5c0,0,0,0,0,0
						c1-0.2,2.6-0.7,4.9-1.5c1.4-0.5,3.1-1.1,3.9-1.3c0,0.3,0.2,0.5,0.4,0.6c0.2,0.1,0.4,0.1,0.6-0.1c0.2,0.3,0.4,0.8,0.6,1.1
						c0.4,0.8,0.6,1.3,1,1.4c0.3,0.1,1.1-0.3,2.8-1.2c0.9-0.5,2.1-1.1,2.3-1.1c0.2,0,0.5,0,0.9,0c1.2,0.1,2.1,0.1,2.7,0.1
						c0,0.2,0.2,0.4,0.4,0.5c0.3,0.1,0.8-0.1,0.9-0.5c0.1-0.2,0.1-0.5,0-0.7c0.2-0.2,0.4-0.5,0.6-0.8c0.6-0.8,1.5-2,2.2-2.6
						c0.1,0.1,0.2,0.2,0.3,0.2c0.3,0.1,0.8-0.1,0.9-0.5c0,0,0-0.1,0-0.1c1.1,0.2,3.2,0.8,4.6,1.3c0.8,0.3,1.5,0.5,1.9,0.6
						c0,0.3,0.1,0.6,0.4,0.8c0.3,0.1,0.7,0,0.9-0.3c0.6,0.4,1.4,1.1,2.3,1.9c0,0,0,0.1,0,0.1c-0.2,0.4,0,0.8,0.3,1
						c0.3,0.1,0.8-0.1,0.9-0.5C196.6,248.6,196.5,248.2,196.1,248z"/>
					<g>
						<path class="st51" d="M189,274.2c-6.4,0-18.8-0.5-19.2-0.9c-0.5-0.5,1.4-13.8,2-17.9l0-0.1l0.1,0c0.9,0,22.1,1.1,23.2,1.4
							c0.1,0,0.2,0.1,0.2,0.2c0.7,1.8-2,16.4-2.4,17.1c0,0.1-0.1,0.1-0.7,0.2C191.6,274.2,190.5,274.2,189,274.2z M170,273.1
							c0.4,0.2,5.5,0.5,11.4,0.7c7.5,0.3,11.2,0.2,11.4,0c0.4-0.6,3-15.2,2.4-16.9c0-0.1-0.1-0.1-0.1-0.1
							c-1.1-0.2-21.5-1.3-23.1-1.3C171.1,262.3,169.7,272.5,170,273.1z"/>
					</g>
					<path class="st51" d="M193.3,264.2c0-0.2-2.3-0.5-2.5-0.5c-0.2,0-1,6.4-1.3,8.7l-1.9-0.1c0.2-1.8,0.6-5.4,0.6-5.6
						c0-0.2-2.3-0.5-2.5-0.5c-0.2,0-0.7,4.1-0.9,5.9l-1.9-0.1c0.4-2.9,1.3-11.2,1.3-11.4c0-0.2-2.3-0.5-2.5-0.5
						c-0.2,0-1.2,8.8-1.6,11.7l-1.9-0.1c0.3-2.6,1-9.1,1-9.3c0-0.2-2.3-0.5-2.5-0.5c-0.2,0-0.9,7-1.2,9.6l-1.9-0.1
						c0.2-2.4,0.8-7.7,0.8-7.9c0-0.2-2.3-0.5-2.5-0.5c-0.2,0-0.8,5.8-1,8.2l0,0c0,0-0.3,0.8-0.1,1c0,0,0.8,0.1,1.9,0.2l0.8,0.1
						c0,0,0,0,0,0c5.7,0.3,18.5,0.7,18.5,0.7S193.3,264.4,193.3,264.2z"/>
					<g>
						<path class="st51" d="M187.8,264.3C187.7,264.3,187.7,264.3,187.8,264.3c-0.3-0.1-0.8-0.9-1.8-2.2c-0.9-1.3-2.2-3.1-2.6-3.2
							c-0.5-0.2-7.1,1.9-11.2,3.2c-0.1,0-0.1,0-0.1-0.1c0-0.1,0-0.1,0.1-0.1c1.1-0.3,10.6-3.4,11.3-3.2c0.4,0.1,1.4,1.4,2.7,3.3
							c0.7,1,1.5,2,1.6,2.1c0.3,0.1,2.7-1.3,4.8-2.7c0.1,0,0.1,0,0.2,0c0,0.1,0,0.1,0,0.2C191.7,262.3,188.5,264.3,187.8,264.3z"/>
					</g>
					<g>
						<g>
							<g>
								<path class="st53" d="M143.4,257.9c0.1-0.2,0.2-0.5,0.3-0.7c0.1-0.1,0.1-0.2,0.2-0.3c-0.2-0.2-0.3-0.5-0.5-0.7
									c-0.3-0.4-0.6-0.9-0.8-1.3c-0.3,0.2-0.6,0.5-0.8,0.9c-0.5,0.7-0.8,1.4-0.9,2.2C141.7,258,142.5,257.9,143.4,257.9z"/>
							</g>
						</g>
						<g>
							<g>
								<path class="st25" d="M149.4,257.9c-0.9,0.1-1.7,0.2-2.6,0.3c0,0.4-0.1,0.7-0.4,1c-0.6,0.8-1.7,1-2.4,0.5
									c-0.4-0.3-0.6-0.7-0.6-1.1c-0.8,0-1.7,0.1-2.5,0.1c0,1.3,0.5,2.4,1.6,3.2c1.8,1.4,4.5,0.9,6-1.1
									C149.1,259.9,149.4,258.9,149.4,257.9z"/>
							</g>
						</g>
						<g>
							<g>
								<path class="st30" d="M144,256c0.1,0.2,0.3,0.4,0.4,0.6c0.5-0.2,1.2-0.2,1.7,0.2c0.3,0.2,0.5,0.5,0.6,0.8
									c0.9-0.1,1.8-0.2,2.6-0.3c-0.2-1-0.7-1.9-1.5-2.6c-1.4-1-3.2-1-4.6-0.1C143.5,255.1,143.7,255.5,144,256z"/>
							</g>
						</g>
						<g>
							<g>
								<path class="st25" d="M163.6,258.5c0-0.1,0.1-0.2,0.2-0.3c0.5-0.7,1.4-0.9,2.1-0.5c0.6-0.5,1.4-1,2.1-1.4
									c-0.1-0.2-0.3-0.3-0.5-0.4c-1.7-1.2-4.1-0.8-5.4,1c-0.3,0.4-0.5,0.7-0.6,1.1C162.2,258.2,162.9,258.3,163.6,258.5z"/>
							</g>
						</g>
						<g>
							<g>
								<path class="st30" d="M164.8,260.7c-0.3,0-0.5-0.1-0.7-0.3c-0.4-0.3-0.6-0.8-0.6-1.4c-0.7-0.2-1.5-0.4-2.2-0.5
									c-0.3,1.4,0.2,2.9,1.3,3.8c0.8,0.6,1.7,0.8,2.6,0.7C165,262.3,164.9,261.5,164.8,260.7z"/>
							</g>
						</g>
						<g>
							<g>
								<path class="st30" d="M166.4,259.7c0,0.1-0.1,0.2-0.2,0.3c-0.2,0.3-0.5,0.5-0.9,0.6c0.1,0.8,0.2,1.5,0.4,2.3
									c0.9-0.2,1.7-0.8,2.3-1.6c0.3-0.4,0.6-0.9,0.7-1.4C168,259.9,167.2,259.8,166.4,259.7z"/>
							</g>
						</g>
						<g>
							<g>
								<path class="st53" d="M166.8,257.7c-0.2,0.1-0.4,0.3-0.5,0.4c0.2,0.3,0.3,0.7,0.3,1.1c0.8,0.1,1.5,0.1,2.3,0.2
									c0.1-0.9-0.1-1.8-0.6-2.6C167.8,257.1,167.3,257.4,166.8,257.7z"/>
							</g>
						</g>
						<g>
							<g>
								<path class="st25" d="M160.9,272.8C160.9,272.8,160.9,272.8,160.9,272.8c0.4-0.6,0.7-1.2,1.1-1.8c-0.4-0.4-0.5-1.2-0.1-1.8
									c0.5-0.6,1.3-0.8,1.9-0.3c0.1,0.1,0.2,0.1,0.2,0.2c0.7,0,1.4-0.1,2.1-0.1c-0.2-0.7-0.5-1.3-1.1-1.7c-1.4-1-3.4-0.7-4.6,0.9
									C159.3,269.7,159.5,271.8,160.9,272.8z"/>
							</g>
						</g>
						<g>
							<g>
								<path class="st30" d="M166.2,269.5c-0.7,0-1.3,0.1-2,0.1c0.1,0.4,0,0.8-0.3,1.2c-0.4,0.5-1,0.7-1.6,0.5
									c-0.4,0.6-0.7,1.2-1.1,1.7c1.4,0.7,3.1,0.2,4.1-1.1C166,271.2,166.2,270.4,166.2,269.5z"/>
							</g>
						</g>
						<g>
							<g>
								<path class="st25" d="M143.3,270c-0.6-0.5-0.7-1.4-0.2-2.1c0.2-0.3,0.5-0.5,0.8-0.6c0.2-0.7,0.3-1.5,0.4-2.2
									c-1.1,0-2.2,0.6-2.9,1.6c-1.2,1.7-1,3.9,0.5,5.1c0.8,0.6,1.7,0.7,2.6,0.6c-0.2-0.7-0.4-1.4-0.5-2.1
									C143.8,270.3,143.6,270.2,143.3,270z"/>
							</g>
						</g>
						<g>
							<g>
								<path class="st30" d="M146.5,265.8c-0.5-0.4-1-0.6-1.6-0.6c-0.1,0.7-0.2,1.4-0.4,2.2c0.2,0,0.5,0.1,0.7,0.3
									c0.3,0.3,0.5,0.6,0.5,1.1c0.7,0.1,1.4,0.1,2.1,0.1C147.9,267.6,147.4,266.5,146.5,265.8z"/>
							</g>
						</g>
						<g>
							<g>
								<path class="st53" d="M145.6,269.2c-0.1,0.2-0.1,0.3-0.2,0.5c-0.2,0.3-0.5,0.5-0.7,0.6c0.1,0.7,0.3,1.4,0.5,2.1
									c0.7-0.2,1.4-0.7,1.9-1.4c0.4-0.5,0.6-1,0.7-1.6C147,269.3,146.3,269.2,145.6,269.2z"/>
							</g>
						</g>
						<g>
							<g>
								<g>
									<path class="st14" d="M156.9,263.3l3.3,0.2c0.1-1.6-0.6-3.2-1.8-4.3c-0.8,0.8-1.6,1.7-2.4,2.6
										C156.5,262.2,156.8,262.7,156.9,263.3z"/>
								</g>
							</g>
						</g>
						<g>
							<g>
								<g>
									<path class="st4" d="M150.5,265.3c0.6-0.3,1.2-0.5,1.8-0.8c-0.2-0.7,0-1.5,0.4-2.1c0.7-0.9,1.7-1.2,2.6-0.9
										c0.8-0.9,1.6-1.8,2.4-2.7c-2.4-1.6-5.8-0.8-7.7,1.7c-1.3,1.7-1.6,3.8-1,5.5C149.6,265.8,150.1,265.5,150.5,265.3z"/>
								</g>
							</g>
						</g>
						<g>
							<g>
								<g>
									<path class="st15" d="M158.7,267.4c0.1-0.1,0.2-0.2,0.3-0.3c0.6-0.9,1-1.8,1.2-2.8l-3.3-0.2c-0.1,0.4-0.2,0.7-0.4,1
										C157.1,265.9,157.9,266.6,158.7,267.4z"/>
								</g>
							</g>
						</g>
						<g>
							<g>
								<g>
									<path class="st8" d="M155.9,265.6c-0.8,0.7-2,0.7-2.8,0.1c-0.2-0.2-0.4-0.3-0.5-0.5c-0.6,0.3-1.2,0.5-1.8,0.8
										c-0.5,0.2-0.9,0.5-1.4,0.7c0.3,0.7,0.9,1.4,1.5,1.9c2.1,1.6,5.1,1.3,7.2-0.6C157.4,267.1,156.6,266.4,155.9,265.6z"/>
								</g>
							</g>
						</g>
					</g>
				</g>
				<path class="st24" d="M97.2,296.2c0.1,0.7,0.4,3.1,0.4,5.8c0,3.2,83.7,4.6,86,4.6c2.3,0,49.9-12,49.9-12s0.5-4.2,0-5.5
					c0,0,0,0-0.1-0.1l-50.7,11.6L97.2,296.2z"/>
				<g>
					<path class="st51" d="M112.9,346.9c0,0,6.2-1.2,6.2,0c0,1.2,0,4.5,0,4.5s10.7-4.9,13.2-4.5c2.5,0.4,2.5,8.7,2.5,8.7h-1.6
						c0,0,0.8-6.2-1.7-5.8c-2.5,0.4-9.1,4.1-9.1,4.1s13.8,2.8,14.7,6.1c0.8,3.3-0.4,9.1-0.4,9.1h-2.1c0,0,0-7.8-1.6-8.7
						c-3.3-1.6-15.9-4.9-15.9-4.9s-15.7,3.9-17.3,5.6c-1.6,1.6-1.2,9.9-1.2,9.9h-1.7c0,0-2.1-9.5-0.8-11.5
						c1.2-2.1,15.3-5.2,15.3-5.2s-9.1-5.4-11.5-4.9c-2.5,0.4-1.2,6.6-1.2,6.6l-2.5,0.4c0,0-1.2-9.5,2.5-9.9
						c3.7-0.4,14.4,4.9,14.4,4.9V346.9z"/>
					<path class="st46" d="M115.4,353.1c0-0.3,0-4.7,0-6.6c-1.3,0.2-2.5,0.4-2.5,0.4v4.5c0,0-10.7-5.4-14.4-4.9
						c-3.7,0.4-2.5,9.9-2.5,9.9l2.5-0.4c0,0-1.2-6.2,1.2-6.6c2.5-0.4,11.5,4.9,11.5,4.9l2.1-0.8c0,0,3.3,1.6,5.4,0
						C118.7,353.5,115.4,353.5,115.4,353.1z"/>
					<path class="st46" d="M122.9,354c-0.3-0.1-0.5-0.1-0.5-0.1s6.6-3.7,9.1-4.1c2.5-0.4,1.7,5.8,1.7,5.8h1.6c0,0,0-8.2-2.5-8.7
						c-2.4-0.4-12.4,4.2-13.1,4.5l-0.5,2.1L122.9,354z"/>
					<path class="st51" d="M110.9,339.5c0,0-0.4,5.4,0.8,7c1.2,1.6,7.8,0.8,8.2,0.4c0.4-0.4,0.4-8.2,0.4-8.2L110.9,339.5z"/>
					<path class="st46" d="M116.2,345.7c-1.4-0.3-1-5.1-0.9-6.6l-4.5,0.4c0,0-0.4,5.4,0.8,7c1.2,1.6,7.8,0.8,8.2,0.4
						c0.1-0.1,0.2-1,0.3-2.2C119.3,345.2,117.4,346,116.2,345.7z"/>
					<ellipse class="st46" cx="135.7" cy="368" rx="3" ry="3.2"/>
					<path class="st46" d="M100.8,370.3c0,1.8-1.3,3.2-3,3.2c-1.7,0-3-1.4-3-3.2c0-1.8,1.3-3.2,3-3.2
						C99.5,367.1,100.8,368.5,100.8,370.3z"/>
					<path class="st46" d="M99.9,355.5c0,1.8-1.3,3.2-3,3.2c-1.7,0-3-1.4-3-3.2c0-1.8,1.3-3.2,3-3.2
						C98.6,352.3,99.9,353.7,99.9,355.5z"/>
					<path class="st46" d="M137.4,354.1c0,1.8-1.3,3.2-3,3.2c-1.7,0-3-1.4-3-3.2c0-1.8,1.3-3.2,3-3.2
						C136,350.9,137.4,352.4,137.4,354.1z"/>
				</g>
				<path class="st46" d="M94.8,336.1c0,0,6.9,7.4,21.3,7.9c14.3,0.5,18.5-13.4,18.5-13.4L94.8,336.1z"/>
				<path class="st4" d="M87,326.4c0,0-0.9,7.9,0.9,10.2c1.8,2.3,27.7,0.9,31.9,0.9c4.2,0,23.1-6,24-9.2c0.9-3.2-3.7-10.6-3.7-10.6
					S88.8,321.8,87,326.4z"/>
				<g>
					<g>
						<g>
							<g>
								<g>
									<g>
										<g>
											<path class="st43" d="M153.7,361.1c0.3,0,0.5,0,0.8-0.1c1.8-0.3,11.2-2.2,11.1-3.7c-0.2-1.7-4.1-4.8-10.4-0.3
												C150.1,360.6,152.5,361,153.7,361.1z"/>
										</g>
									</g>
								</g>
								<g>
									<g>
										<g>
											<path class="st44" d="M155.2,357c0.3-0.2,0.6-0.4,0.8-0.6c-1,1.7,2,2.8,6,1.8c2.5-0.6,3-1.5,3-2.1
												c0.3,0.4,0.5,0.8,0.6,1.2c0.2,1.6-9.3,3.4-11.1,3.7c-0.3,0-0.5,0.1-0.8,0.1C152.5,361,150.1,360.6,155.2,357z"/>
										</g>
									</g>
								</g>
							</g>
							<g>
								<g>
									<g>
										<path class="st45" d="M153.7,359.2C153.7,359.2,153.7,359.2,153.7,359.2c-0.2-0.1-0.4-0.2-0.4-0.5c0-0.1,0-0.2,0-0.3
											c0-0.3-0.1-0.5-0.1-0.8c-0.2-1.6-0.3-3.1-0.5-4.7c-0.2-1.6-0.3-3.1-0.5-4.7c-0.1-0.7-0.2-1.4-0.2-2.1l2.7,0.1
											c0,0.3,0,0.5,0,0.8c0.1,1.3,0.2,2.5,0.2,3.8c0.1,1.6,0.2,3.2,0.3,4.8c0,0.7,0.1,1.3,0.1,2c0,0.6,0.2,1.4-0.3,1.8
											c-0.2,0.2-0.5,0.2-0.8,0.2C154,359.4,153.9,359.3,153.7,359.2z"/>
									</g>
								</g>
							</g>
						</g>
						<path class="st51" d="M95.3,315.4c0,0,1,11.3,11.1,11.5c10.1,0.2,36.9-7.4,40.2-7.4c1.8,0,5.1,33.7,5.1,33.7l4.2-0.9
							c0,0,2-42.4-2.1-44.3c-4.1-1.9-44.5,2.3-44.5,2.3L95.3,315.4z"/>
					</g>
					<g>
						<g>
							<g>
								<g>
									<g>
										<path class="st45" d="M119.2,237.2c0,0-4.1-3.5-3.5-4.4c0.6-0.9,2.3,1.3,2.5,0.5c0.2-0.7-2.5-4.8-1.5-5.8
											c0.8-0.8,2.4,4,2.7,3.8c0.2-0.2,0-4.6,0.6-5.1c0.6-0.4,1.2,1.1,0.9,4c0,0-0.1,1.2,0.1,1.1s1.2-4,1.8-3.8
											c0.6,0.2,0.4,1.2-0.5,4.3c0,0-0.2,0.6,0,0.3c0.2-0.2,1.8-3.4,2.2-2.1c0.4,1.2-3,7.9-3,7.9L119.2,237.2z"/>
									</g>
								</g>
								<path class="st26" d="M118.5,241l0.2-3.7c0,0,2.4-0.7,3.5,0.2l0.6,3L118.5,241z"/>
							</g>
							<g>
								<g>
									<path class="st54" d="M118.2,238.2c-5.8,14.9-8.2,17.4-8.2,17.4c-4.6,1.1-8.4,2-11.7,2.9c3.8,5.5,7.8,10.9,12.9,15.2
										c0.5-0.3,6.2-3.4,9.7-9.1c5.6-9,2.2-26.1,2.2-26.1C121.8,237.4,119.6,237.8,118.2,238.2z"/>
								</g>
							</g>
							<path class="st46" d="M121.8,240.1c0.2,0,0.4,0.4,0.5,0.9c0.1,0.5-0.1,1-0.3,1c-0.2,0-0.4-0.4-0.5-0.9
								C121.5,240.5,121.6,240.1,121.8,240.1z"/>
						</g>
						<g>
							<g>
								<g>
									<path class="st45" d="M160.1,270.8c0,0,0.8-5.4,1.9-5.3c1.1,0,0.2,2.6,0.9,2.4c0.7-0.2,2.8-4.7,4.1-4.4
										c1.1,0.3-2.1,4.2-1.8,4.3c0.3,0.1,3.9-2.5,4.6-2.2c0.7,0.3-0.2,1.6-2.9,2.9c0,0-1.1,0.6-0.9,0.7c0.2,0.1,4.1-1.1,4.2-0.5
										c0.1,0.6-0.9,1-3.9,1.9c0,0-0.6,0.1-0.3,0.2c0.3,0.1,3.8-0.3,3,0.7c-0.9,1-8.3,1.7-8.3,1.7L160.1,270.8z"/>
								</g>
							</g>
							<path class="st26" d="M156.6,272.3l3.2-1.9c0,0,1.9,1.6,1.7,3.1l-2.2,2.1L156.6,272.3z"/>
						</g>
						<g>
							<g>
								<path class="st29" d="M96.2,241.7l2.6,14.4l5.6-0.8l-1.8-5.7c0,0,3.5,1.3,5.6-0.8c1.9-1.9-1.6-11.9-1.6-11.9L96.2,241.7z"/>
							</g>
						</g>
						<path class="st20" d="M106.7,253.1c0,0-1.1-2.5-1.5-2.5c-0.4,0.1-8.3,0.8-8.9,1.7c-0.6,0.9-0.4,2.4-0.4,2.4L106.7,253.1z"/>
						<path class="st54" d="M112.5,258.8c0,0-3.2-6-4.8-6.6c-1.6-0.5-11.8,0.6-12.8,1.9c-1,1.3,1,9.1,1,9.1L112.5,258.8z"/>
						<g>
							<g>
								<path class="st51" d="M158.8,270.5c-15.7,3.1-19.1,2.4-19.1,2.4c-15.4-14.9-19.5-18.8-30.9-19c-6.1-0.1-25.6,3.1-27.2,14.6
									c-1.6,11,11.8,46,11.8,46c21.7,4.8,29.4-6.6,29.4-6.6c0.6-7.8,2.1-24.4,2.1-24.4s5.9,3.4,13,3.4
									c10.5-0.1,23.3-12.1,23.3-12.1C161.3,273.1,159.8,271.5,158.8,270.5z"/>
							</g>
						</g>
						<g>
							<g>
								<path class="st55" d="M102,245.2c0,0-1.9,5.8-6.2,4.5c-4.3-1.3-3.3-6.4-3.3-6.4s-2.1,1.4-2.3,0.5c-0.2-0.9,2-1.2,2-1.2
									s-3.3-0.6-2.8-2.4c0.5-1.8,2.8-0.3,2.8-0.3s0.3-6.3,8.2-9.8c7.9-3.5,12.9,6.9,1.3,11.8c0,0-3.1-1.8-3,1.4
									C98.7,247.8,102,245.2,102,245.2z"/>
							</g>
						</g>
						<g>
							<g>
								<path class="st16" d="M92.2,242.6c0,0-2.2,0.3-2,1.2c0.2,0.9,2.3-0.5,2.3-0.5s-1,5.1,3.3,6.4c4.3,1.3,6.2-4.5,6.2-4.5
									s-3.2,2.6-3.4-2c-0.1-3.2,3-1.4,3-1.4c6.1-2.6,7.6-6.7,6.5-9.5c0.4,4.6-8.8,9.2-12.5,8.7c-2.7-0.4-2.8-2.7-2.6-4.4
									c-0.8,1.8-0.9,3.2-0.9,3.2s-2.3-1.5-2.8,0.3C88.8,241.9,92.2,242.6,92.2,242.6z"/>
							</g>
						</g>
						<path class="st46" d="M159.1,274.5c0.1,0.2-0.1,0.6-0.5,0.9c-0.4,0.3-0.8,0.5-1,0.3c-0.1-0.2,0.1-0.6,0.5-0.9
							S158.9,274.4,159.1,274.5z"/>
						<path class="st54" d="M118.8,278.9c-0.3,8.2-2.8,20.8-15.4,23.2c-8.5,1.6-13.9-3.3-17.3-9.3c3.4,11,7.3,21.7,7.3,21.7
							c21.7,4.8,29.4-6.6,29.4-6.6c0.4-5.8,1.6-18.3,2.2-24.4C123.3,282.6,120.8,281.1,118.8,278.9z"/>
						<g>
							<g>
								<g>
									<path class="st46" d="M110.8,315.3c-4.4,1-10.1,1.2-17.3-0.4c-0.2,0-0.3-0.2-0.3-0.4c0-0.2,0.2-0.3,0.4-0.3
										c20.1,4.4,28-5.2,28.8-6.3c0.1-0.2,0.3-0.2,0.5-0.1c0.2,0.1,0.2,0.3,0.1,0.5C122.5,309,118.9,313.5,110.8,315.3z"/>
								</g>
							</g>
						</g>
						<g>
							<path class="st46" d="M138.4,287c-12.2,0.5-20.4-8.3-20.5-8.4c-0.1-0.1-0.1-0.2,0-0.3c0.1-0.1,0.2-0.1,0.3,0
								c0.1,0.1,8.3,8.9,20.5,8.3c4.3-0.2,11.6-2.5,22.3-12c0.1-0.1,0.2-0.1,0.3,0c0.1,0.1,0.1,0.2,0,0.3
								c-10.8,9.6-18.3,11.8-22.6,12.1C138.7,287,138.5,287,138.4,287z"/>
						</g>
					</g>
				</g>
				<path class="st4" d="M73.3,270.1c12.2-1.7,43.5-3.4,46,3.4c2.5,6.8-0.4,44.3-9.3,47.7c-8.9,3.4-27,0-27,0S61.1,271.8,73.3,270.1
					z"/>
				<path class="st56" d="M110.9,276c-1.5-3.5-39.6-0.6-41.2-0.5C68.6,288.7,83,321.2,83,321.2s18.1,3.4,27,0
					C110.6,321,115.3,286.4,110.9,276z"/>
				<path class="st56" d="M143.8,328.3c0.5-1.7-0.5-4.5-1.6-6.8c-5.2,1.9-21.2,7.9-24.7,8.6c-3.6,0.8-25.4-0.5-30.7-0.8
					c-0.1,2.5,0,5.9,1.1,7.3c1.8,2.3,27.7,0.9,31.9,0.9C123.9,337.5,142.9,331.5,143.8,328.3z"/>
				<path class="st51" d="M106.4,339.8c0,0-7.9-17.1-7.4-37h-9.2c0,0,0.9,28.7,8.3,37C102.9,345.2,106.4,339.8,106.4,339.8z"/>
				<path class="st46" d="M99,302.8h-2.2c0.3,4.4,0.4,15.1,2.2,23.1c2.3,10.2,4.2,11.6,3.7,13.4c-0.5,1.8-4.6,0.5-4.6,0.5
					c4.8,5.4,8.3,0,8.3,0S98.5,322.7,99,302.8z"/>
				<g>
					<g>
						<g>
							<path class="st26" d="M224.9,286.6l0,2.2l-0.6,0.2l0.6,0.1l0,0.8c0,0-13.9,3.3-14.2,2.2c-0.3-1.1,0-3.9,0-3.9L224.9,286.6z"
								/>
						</g>
						<g>
							<g>
								<path class="st30" d="M210.8,288.3c0,0-0.1,0.6-0.1,1.4l0.1,2.4c0,0,1.1,0,1-0.2c-0.1-0.2-0.2-1.5-0.2-1.6
									c0-0.1,2.4-0.4,2.4-0.4l-2.4,0.2l-0.1-0.5c0,0,7.9-1.1,10.7-1.4c-2.8,0.3-10.7,1.2-10.7,1.2s-0.1-0.6,0-0.8
									c0.1-0.1,4.3-0.6,7-0.8c2.7-0.2,6.4-0.8,6.4-0.8l0-0.5L210.8,288.3z"/>
							</g>
						</g>
						<g>
							<path class="st30" d="M225,289.1c-0.2,0-7.6,1.5-7.6,1.5l7-1.6L225,289.1z"/>
						</g>
					</g>
					<g>
						<path class="st15" d="M186.8,286.5c0,0-0.5,3.3,0.2,3.9c0.7,0.6,23.7,2.6,24.3,2.5c0.7-0.1,13.9-2.3,14.1-2.6
							c0.2-0.3,0-0.8,0-0.8s-13.7,2.7-14,2.2s-0.5-3.1-0.1-3.3c0.5-0.3,14-1.3,14.1-1.7c0.1-0.3,0-0.6,0-0.6s-22.3-1.6-24.8-1.3
							C198.3,285.2,187.1,286,186.8,286.5z"/>
					</g>
					<g>
						<path class="st16" d="M225.5,286.2c-2.3,0.2-13.1,1.5-14.9,1.8c-0.1,0-1,0.2-0.1,4.1c0,0-1.1-3-0.4-4.1
							c-2.6-0.1-20.6-1.3-23.3-1.5c0,0,0,0,0,0c0,0-0.5,3.3,0.2,3.9c0.7,0.6,23.7,2.6,24.3,2.5c0.7-0.1,13.9-2.3,14.1-2.6
							c0.2-0.3,0-0.8,0-0.8s-13.7,2.7-14,2.2s-0.5-3.1-0.1-3.3c0.5-0.3,14-1.3,14.1-1.7C225.5,286.5,225.5,286.2,225.5,286.2z"/>
					</g>
				</g>
				<g>
					<path class="st57" d="M192.9,285.5c0,0-1.1,0-0.8,0.3c0.3,0.3,15,1.5,15.5,1.5c0.5,0,10.8-1.2,12.1-1.3
						c0.1,0-10.8-0.7-10.8-0.7L192.9,285.5z"/>
					<path class="st14" d="M221.3,285.6c0,0-12.9,1.5-13.7,1.5c-0.8,0-15-1.3-15-1.5c-0.1-0.6,0-0.8,0-0.8s13.9,1.5,14.2,1.1
						s0.6-4.8,0.1-5c-0.5-0.2-14.2-0.3-14.2-0.4c0-0.1-0.2-0.6,0-0.7c0.2-0.1,13.2-1.2,14.5-1.3c2.7-0.1,13.7,0.7,14,1
						C221.5,279.9,221.3,285.6,221.3,285.6z"/>
					<path class="st58" d="M193,285l0.1-3.5l1.9-0.2l-1.9-0.1l0-0.9c0,0,13.9-0.2,14.3,0.4c0.3,0.6,0.1,5.6-0.4,5.8
						C206.5,286.6,193,285,193,285z"/>
					<g>
						<path class="st30" d="M205.6,283.1C205.6,283.1,205.6,283.1,205.6,283.1C205.6,283.1,205.6,283.1,205.6,283.1z"/>
						<path class="st59" d="M207.6,281.6c0-0.5-0.1-0.8-0.2-1c-0.3-0.6-14.3-0.4-14.3-0.4l0,0.5c1.2,0,13.5,0.3,13.5,0.4
							c0.1,0.1,0,1.4,0,1.4l-2.2,0l2.2,0.3l0,0.3c0,0-1,0-1,0c0,0,1,0.3,1,0.3s0,1.3-0.1,1.4c-0.1,0.2-11.7-0.8-11.7-0.8
							s11.6,1.1,11.6,1.2c0,0.1-0.2,1.1-0.2,1.1l0.7,0.1c0.3-0.1,0.5-2.1,0.6-3.8L207.6,281.6z"/>
					</g>
					<path class="st27" d="M221.3,285.6c0,0,0.2-5.6-0.1-6.1l-13.4,0.6c0.7,1.7,0.1,5.3,0.1,5.3c0.2-3-0.3-5.1-0.6-5.3
						c-0.3-0.2-12.6-0.3-14.7-0.3c-0.1,0.1,0.1,0.5,0.1,0.7c0,0.1,13.7,0.2,14.2,0.4c0.5,0.2,0.2,4.5-0.1,5s-14.2-1.1-14.2-1.1
						s-0.1,0.1,0,0.8c0,0.2,14.2,1.5,15,1.5C208.4,287.1,221.3,285.6,221.3,285.6z"/>
					<path class="st41" d="M218.8,281.1c0,0-7.8,0.3-8,0.6c-0.1,0.3-0.2,3.3,0,3.5c0.2,0.1,7.9-0.5,8-0.7
						C219.1,284.2,218.8,281.1,218.8,281.1z"/>
					<polygon class="st59" points="195.1,281.3 203.1,282 193.2,281.5 					"/>
					<g>
						<path class="st41" d="M211.2,285.6c-0.2,0-0.4,0-0.5,0c-0.1,0-0.1,0-0.1-0.1c-0.2-0.3,0-3.7,0-4.1l0,0l0,0
							c0,0,2.1-0.2,4.2-0.4c4.2-0.3,4.3-0.2,4.4-0.1c0.2,0.2,0.2,1.6,0.2,2c0,0.4,0,0.9,0,1.2c0,0.6-0.1,0.6-0.1,0.6
							c0,0-0.1,0.1-1.3,0.2c-0.8,0.1-1.7,0.2-2.7,0.3C214.3,285.4,212.2,285.6,211.2,285.6z"/>
					</g>
				</g>
				<g>
					<g>
						<path class="st26" d="M223.2,276.6l0,2.3c0,0-10.4,1.8-10.6,1.1c-0.2-0.8,0-2.7,0-2.7L223.2,276.6z"/>
						<g>
							<path class="st30" d="M212.6,277.3c0,0,0,0.4-0.1,1l0.1,1.7c0,0,0.7,0,0.7-0.1s-0.1-0.3-0.1-0.4c0,0,2.7-0.3,2.7-0.3
								l-2.7,0.2l-0.1-1.1c0,0,6.7-0.4,8.7-0.7c-1.9,0.2-8.6,0.5-8.6,0.5s0-0.4,0-0.5c0-0.1,4-0.3,5.8-0.4c2-0.1,4.2-0.3,4.2-0.3
								l0-0.3L212.6,277.3z"/>
						</g>
					</g>
					<path class="st8" d="M197,276.3c0,0-0.4,2.3,0.1,2.7c0.5,0.4,15.4,1.6,15.8,1.5c0.5-0.1,10.4-1.2,10.5-1.3c0.1-0.2,0-0.5,0-0.5
						s-10.2,1.4-10.4,1.1c-0.2-0.3-0.3-2.1-0.1-2.3c0.3-0.2,10.4-0.4,10.5-0.7c0.1-0.2,0-0.4,0-0.4s-15-1.2-16.7-1
						C205.1,275.4,197.2,276,197,276.3z"/>
					<path class="st7" d="M223.6,276.3c-1.6,0.2-9.8,0.6-11,0.8c0,0-0.7,0.1-0.1,2.8c0,0-0.8-2.1-0.3-2.8
						c-1.8-0.1-13.3-0.7-15.1-0.8c0,0,0,0,0,0c0,0-0.4,2.3,0.1,2.7c0.5,0.4,15.4,1.6,15.8,1.5c0.5-0.1,10.4-1.2,10.5-1.3
						c0.1-0.2,0-0.5,0-0.5s-10.2,1.4-10.4,1.1c-0.2-0.3-0.3-2.1-0.1-2.3c0.3-0.2,10.4-0.4,10.5-0.7
						C223.6,276.5,223.6,276.3,223.6,276.3z"/>
					<path class="st10" d="M211.4,280.2c0,0-0.6-2.3-0.2-2.9l-0.3,0c0,0-0.4,0.7,0.2,2.9L211.4,280.2z"/>
					<path class="st10" d="M210.7,280.1c0,0-0.6-2.3-0.2-2.9l-0.3,0c0,0-0.4,0.7,0.2,2.9L210.7,280.1z"/>
				</g>
			</g>
		</g>
	</g>
</g>
<g>
	<path class="st8" d="M305.5,86c0,0,10.1,0.1,21.8,1.2c4.7,0.4,9.2,2.1,13.3,4.7c9,5.9,18.9,27,23.7,26.6c9.1-0.8,3.4-25,0.5-32.3
		l7.2-1.8c9.3,12.7,27.6,71.4-10.8,66c-4.8-0.7-9-1.5-16.5-6c0,0-1,11.9-2.4,24.8c-22.8-0.4-48.6-1-70.1-1.5
		c-1.2-5.4-2.4-10.6-3.2-14.7c0,0-8.4,7-11.8,14.3c-11.1-0.4-20.1-0.7-25.6-1.1c-0.3-1.9-0.4-3.8-0.3-5.9
		C232.1,142.3,245.8,93.3,305.5,86z"/>
	<g>
		<path class="st7" d="M334.5,88.9c2.1,0.8,4.2,1.8,6.1,3.1c9,5.9,18.9,27,23.7,26.6c9.1-0.8,3.4-25,0.5-32.3l7.2-1.8
			c9.3,12.7,27.6,71.4-10.8,66c-4.8-0.7-9-1.5-16.4-5.9C345.8,127.9,346.1,96.3,334.5,88.9z"/>
	</g>
	<g>
		<path class="st26" d="M324.4,87c1.8,4.9,4.1,18-5.3,29.5c0,0-27.5-13.8-24.3-28.6c3.4-0.8,7-1.4,10.7-1.8
			C305.5,86,314,86.1,324.4,87z"/>
	</g>
	<path class="st7" d="M286.3,167.9c-4.9-0.1-9.6-0.2-14.2-0.4c-1.2-5.2-2.3-10.2-3.1-14.2c7.5-7.2,14.6-19,14.6-19
		C281.1,148.3,282.6,159.3,286.3,167.9z"/>
	<path class="st10" d="M269,152.9c4.5-5.1,11.2-13.1,14.8-20c0.2-0.4,0.7-0.5,1-0.3c0.4,0.2,0.5,0.7,0.3,1
		c-3.9,7.6-11.2,16.1-15.8,21C269.2,154,269.1,153.4,269,152.9z"/>
	<g>
		<path class="st10" d="M342.2,101.5c0.4-0.1,0.8,0.1,1,0.5c0.2,0.6,4.9,14.5,2.9,43.3c-0.5-0.3-1-0.6-1.5-0.9c0,0,0,0,0,0
			c0,0,0,0,0,0c1.8-27.9-2.9-41.7-2.9-41.9C341.6,102,341.8,101.6,342.2,101.5z"/>
	</g>
	<g>
		<g>
			<path class="st44" d="M368.6,73.9c0,0-3.6-1.4-4.7-1.3c-1.1,0.1-4.9,2.7-4.9,3.3c0,0.6-0.2,4,3.1,3.2c3.4-0.9,1.3,0,1.3,0
				l-0.6,2.1l2.4,1.7l1.6,4.4l3.3-1.4l-1.2-7.9L368.6,73.9z"/>
			<path class="st30" d="M356.1,85.2c0,0,8.2-1.8,7.7-8.1c-0.5-6.2-10.5-2.5-10.5-2.5l5.2,0.7c0,0,3.9-0.9,3.7,2.6
				c-0.3,3.5-4.8,4.4-4.8,4.4L356.1,85.2z"/>
			<path class="st26" d="M359.1,69.8c0,0,2.9,19-10.5,20.1c-13.4,1.1-15.9-13.4-16.2-16.6C332.2,70.2,357.8,69.3,359.1,69.8z"/>
			<path class="st30" d="M339.4,70.8c0.5,11.1,10.5,17.7,16.3,10.8c3-3.6,3.2-8.2,2.6-11.9c0.4,0,0.7,0.1,0.8,0.1
				c0,0,2.9,19-10.5,20.1c-13.4,1.1-15.9-13.4-16.2-16.6C332.4,72.3,335.4,71.4,339.4,70.8z"/>
			<path class="st43" d="M370.7,85.2c0,0-0.9-3.9-1-4.5c0-0.6,0.5-7.5-1.8-7.3c-0.6,0.1-1.2,0.1-1.9,0.2c-1.4,0.1-2.8,0.3-4.2,0.6
				c-0.6,0.1-1.3,0.3-1.9,0.5c-0.2,0.1-0.6,0.2-0.8,0.3c-0.3,0.2-0.4,0.6-0.4,0.9c0,0.2,0,0.4,0.1,0.5c0.2,0.4,0.6,0.4,1,0.5
				c0.4,0.1,0.9,0.1,1.3,0.2c0.2,0,0.4,0,0.7,0c0.3,0,0.5,0,0.8-0.1c1-0.1,2.1-0.2,3.1-0.3c0.1,0,0.2,0,0.3,0
				c0.1,0.1,0.2,0.2,0.1,0.3c0,0.1-0.1,0.1-0.2,0.1c-0.6,0.1-1.2,0.1-1.7,0.2c-1,0.1-2,0.3-2.9,0.5c-0.4,0.1-0.8,0.2-1.1,0.4
				c-0.2,0.1-0.4,0.3-0.4,0.5c0.1,0.6,0.9,0.9,1.4,1c0.7,0.2,1.4,0.2,2.1,0.2c0.4,0,0.7,0,1.1,0c0.5,0,0.9-0.1,1.4-0.1
				c0.1,0,0.2,0,0.3,0c0,0,0.1,0,0.1,0.1c0,0,0,0.1,0,0.1c-0.1,0.1-0.2,0.1-0.3,0.2c-0.7,0.3-1.4,0.5-2.2,0.7
				c-0.3,0.1-0.6,0.2-0.8,0.3c-0.5,0.4-0.5,1,0,1.4c0.4,0.3,1,0.3,1.5,0.3c0.5,0,0.9,0,1.4,0c1.5-0.1,2.8-1.2,3.3-2.7
				c0.4,1.2-0.7,2.4-0.6,3.7c0.1,0.7,0.5,1.3,0.5,1.9C369,86.5,370.7,85.1,370.7,85.2z"/>
		</g>
		<path class="st25" d="M354.8,78.1c0.3-0.6,0.4-1.2,0.5-1.9c0.2-0.8,0.4-1.7,0.5-2.5c0-0.5,0-1-0.1-1.4c0-0.1,0-0.2-0.1-0.3
			c-0.1-0.1-0.1-0.1-0.2-0.1c-1.3-0.3-2.6-0.2-3.8,0.4c-0.1,0-0.1,0.1-0.1,0.1c0,0.1,0,0.1,0,0.2c0.2,0.9,0.6,1.8,0.8,2.7
			c0.3,1.6,0,3.2-0.4,4.7c-0.1,0.4-0.5,1.5,0.3,1.3c0.5-0.1,1-0.9,1.3-1.3C354,79.4,354.5,78.8,354.8,78.1z"/>
		<g>
			<path class="st26" d="M367.4,94.9c-0.8-3.6-1.8-6.7-2.6-8.7l7.2-1.8c1.4,1.9,3,4.8,4.6,8.4C373.7,94.5,370.6,94.9,367.4,94.9z"/>
		</g>
		<g>
			<path class="st10" d="M370.1,95.6c4.2-0.4,6.8-2.3,6.9-2.4c0.2-0.2,0.3-0.5,0.1-0.8c-0.2-0.2-0.5-0.3-0.8-0.1
				c0,0-3.6,2.6-8.8,2.2c-0.3,0-0.6,0.2-0.6,0.5c0,0.3,0.2,0.6,0.5,0.6C368.3,95.7,369.2,95.7,370.1,95.6z"/>
		</g>
	</g>
	<g>
		<g>
			<path class="st21" d="M320.5,81.6c0,0-9-3.3-18.8-0.2l2,7.1l17.1,3L320.5,81.6z"/>
		</g>
		<g>
			<path class="st14" d="M327.5,57.4c0,0,9.7,6.3,12.2,1.2c2.6-5.1-9-12.2-9-12.2s10.5,0.7,9.6-4.7c-1-5.5-10.8-9.4-22.8-6.3
				c0,0,4.2-6.1,1-7c-3.3-0.9-16.8,5.8-19.1,18.5c0,0-0.8-3.7-2.6-3.3c-1.7,0.4-5.4,10,5.2,21.2c0,0,7.3,4.2,11.9,0.1
				C318.6,60.7,327.5,57.4,327.5,57.4z"/>
		</g>
		<g>
			<path class="st27" d="M313.9,64.8c-4.7,4.1-11.9-0.1-11.9-0.1c-2.8-3-4.6-5.8-5.7-8.4c6.6,9.6,8.7-7.5,8.7-7.5s0.6,4,4.6,2.9
				c4-1.1,2-9.2,2-9.2s4.8,6.7,16.4,9.6c9.3,2.4,7.2-1.8,6-3.5c3.2,2.5,7.5,6.6,5.8,10c-2.6,5.1-12.2-1.2-12.2-1.2
				S318.6,60.7,313.9,64.8z"/>
		</g>
		<g>
			<polygon class="st43" points="307.1,70.8 304.6,93.8 315.5,98 321.2,94.8 318,77.9 			"/>
		</g>
		<g>
			<path class="st44" d="M319.7,86.6c-2.7-0.6-11.9-3.5-11.8-13l10.2,4.4L319.7,86.6z"/>
		</g>
		<g>
			<path class="st43" d="M327.6,55.7c0,0,5.4,23.5-6.2,24.3c-11.6,0.8-14.4-6.6-14.4-6.6s-5.1,2.1-6.8-1.9c-1.7-4-1-10.1,6.5-7.7
				C306.6,63.8,314.7,50.2,327.6,55.7z"/>
		</g>
		<g>
			<path class="st41" d="M306.9,64c0.2,0,0.4-0.1,0.5-0.3c4.2-6,9.2-8.8,14.9-8.6c4.2,0.2,7.3,2.2,7.3,2.2c0.3,0.2,0.8,0.1,1-0.2
				c0.2-0.3,0.1-0.8-0.2-1c-0.1-0.1-3.4-2.2-8-2.4c-7.7-0.4-13,4.8-16.2,9.2c-0.2,0.3-0.2,0.8,0.2,1C306.5,64,306.7,64,306.9,64z"/>
		</g>
		<g>
			<path class="st30" d="M301.8,82.3c0,0-5.8,12.7,8,25.6c0,0,2.4-8.1,5-9.1l4.2,17.7l-2.4-18.7c0,0,3.7,2.6,4.7,7
				c0,0,6.8-10.9,1.1-20.6l-5.4,10.5l-2.6,1L301.8,82.3z"/>
		</g>
		<g>
			<path class="st26" d="M301.1,88.6c0,0-0.2-6.2,0.6-7.2c0,0,8.4,11.3,13.9,13.8c0,0-7,2.9-6.8,9.2
				C308.8,104.4,301.3,95.7,301.1,88.6z"/>
		</g>
		<g>
			<path class="st26" d="M320.5,81.6c0,0,0.3,8.9-4.9,13.6c0,0,4.5,1.6,5.6,6.9C321.2,102.1,326.9,87.7,320.5,81.6z"/>
		</g>
	</g>
</g>
<path class="st8" d="M317.8,105.1c1.8-1,2.4-5.9,2.4-5.9s-3.7-3-7.1,0.7c0,0,1.2,3.9,3.1,5c-1.1,4.3-6.9,29.1-6.4,31.9
	c0.3,1.8,6.8,10.5,7.2,10.6c0.9,0.1,5.4-8.9,5.5-10.6C322.8,132.8,318.7,109.5,317.8,105.1z"/>
<g>
	<path class="st26" d="M302.7,156.9c0,3.2-2.7,5.8-6.1,5.8c-3.4,0-6.1-2.6-6.1-5.8c0-3.2,2.7-5.8,6.1-5.8
		C299.9,151.2,302.7,153.7,302.7,156.9z"/>
	<path class="st27" d="M300.4,149.9c-3.5-2-8.1-0.7-10.2,3c-2.1,3.7-1,8.3,2.5,10.3c1.1,0.6,2.3,0.9,3.5,0.9c0.7,0,1.4-0.1,2.1-0.3
		c1.9-0.6,3.5-1.9,4.6-3.6C305,156.5,303.9,151.9,300.4,149.9z M301.5,154.3c-0.2,0.7-2,2.5-2.5,2.3c-0.5-0.2-1.6-1.4-1.6-1.4
		s-2.8,1.9-2.5,2.3c0.3,0.4,1.7,0.7,1.5,1.5c-0.2,0.7-2,2.5-2.3,2.6c0,0-2.8-1.8-1.8-3.8c0.5-1.1,5-5.6,6.4-5.3
		C300.2,152.8,301.7,153.6,301.5,154.3z"/>
</g>
<g>
	<g>
		<path class="st15" d="M276.4,163.6c-1.2,0-2.4-0.3-3.5-0.9c-3.5-2-4.6-6.7-2.5-10.3c2.1-3.7,6.7-5,10.2-3c3.5,2,4.6,6.7,2.5,10.3
			c-1,1.8-2.6,3.1-4.6,3.6C277.8,163.5,277.1,163.6,276.4,163.6z M277.1,149.3c-2.3,0-4.6,1.3-5.9,3.5c-1.9,3.2-0.9,7.3,2.1,9.1
			c1.5,0.9,3.2,1,4.9,0.5c1.7-0.5,3.1-1.6,4-3.2c1.9-3.2,0.9-7.3-2.1-9.1C279.2,149.6,278.1,149.3,277.1,149.3z"/>
	</g>
	<path class="st15" d="M279.9,157.3c-0.3-0.3-1.1-0.5-2-0.6v-0.5c0.9-0.4,1.1-1.2,1.3-1.8c0.3-1,0-2.5-1-3c-1.5-0.7-3.2,0-3.2,2.5
		c0,1.8,0.9,2.3,1.4,2.4l0,0.2c-1.1,0-2,0.1-2.3,0.4c-0.7,0.7-1.5,2.9-1.5,2.9l7.8,0.2C280.3,160.2,280.6,158,279.9,157.3z"/>
</g>
<g>
	<g>
		<path class="st15" d="M316.2,164.8c-1.2,0-2.4-0.3-3.5-0.9c-3.5-2-4.6-6.7-2.5-10.3c2.1-3.7,6.7-5,10.2-3c3.5,2,4.6,6.7,2.5,10.3
			c-1,1.8-2.6,3.1-4.6,3.6C317.6,164.6,316.9,164.8,316.2,164.8z M316.9,150.4c-2.3,0-4.6,1.3-5.9,3.5c-1.9,3.2-0.9,7.3,2.1,9.1
			c1.5,0.9,3.2,1,4.9,0.5c1.7-0.5,3.1-1.6,4-3.2c1.9-3.2,0.9-7.3-2.1-9.1C319,150.7,317.9,150.4,316.9,150.4z"/>
	</g>
	<path class="st15" d="M312.3,159.2c0.7,0.5,6,0.7,6,0.5c0-0.2,0-1.2,0-1.2s1.6,2.5,2.1,2.1c0.5-0.5,1.2-5.5,0.5-5.8
		c-0.7-0.2-2.8,1.8-2.5,1.8c0,0,0.2-1.6,0-1.6c-0.2,0-5.4-0.6-5.8-0.2C312.1,155.3,311.6,158.8,312.3,159.2z"/>
</g>
</svg>
